{
    "mentalo-about.paragraph": "Mentalo is an educational application that allows you to build logical reasoning through the creation of simple games based on static screens and text choices.",
    "All games are published under Creative Commons license": "All games are published under <a href='{%license_link%}' target='_blank'>Creative Commons license</a>.",
    "Published the dd/mm/yyyy": "Published the {%date_text%}",
    "warn.new-version-same-title": "Your new version has a different title but title cannot be changed.\nOriginal title will be kept.\n\nDo you want to continue?",
    "info.publish-legal": "By submitting your game to the Mentalo database, you agree to our <a href='/v/publishing-policy/en' target='_blank'>publishing policy</a>.<br />Once the game has been sent, you will receive a confirmation email.<br />And once you have confirmed, we will check that your game complies with the publishing policy. If everything is correct your game will be unblocked online! <br /><br />Your email address will be used for confirmation emails, notifications, and to authentify you as the author of the game if you want to publish updates. No other communications will be sent to you. Your email is stored encrypted and it will never be communicated to anyone.<br /><br /><strong><green>Thank you very much for your contribution !</green></strong>",
    "Your new version of *** is ready to be sent!": "Your new version of {%game_name%} is ready to be sent!",
    "info.update-legal": "By submitting your game to the Mentalo database, you agree to our <a href='/v/publishing-policy/en' target='_blank'>publishing policy</a>.<br />Once the new version has been sent, you will receive a confirmation email, and the game will be publically updated as soon as you confirm your post. <br /><br />Your email address will be used for confirmation emails, notifications, and to authentify you as the author of the game in case of an update. No other communications will be sent to you. Your email is stored encrypted and it will never be communicated to anyone.<br /><br /><strong><green>Thank you very much for your contribution !</green></strong>",
    "Please select a .*** file": "Please select a .{%ext%} file.",
    "beta-in-progress.paragraph": "This version of the Mentalo application is a Beta release and you may encounter some malfunctions.<br /><br />If you find any bug or any dissatisfying feature, please report it by sending an email to the maintainer of the app at <a href='mailto:contact@kuadrado-software.fr'>contact@kuadrado-software.fr</a>",
    "mentalo-dev.paragraph": "Mentalo is a set of free and open source applicative modules and contributors are fully welcome.<br /><br />If you wish to contribute to the development of the project, you are welcome to interact and propose merge requests on the different repositories",
    "You are about to send a deletion demand for ***": "You are about to send a deletion demand for {%game_name%}",
    "info.deletion": "Once your demand is sent and confirmed through the confirmatin link you will receive by email, the moderator in charge will treat your demand and your game will be permanently removed from database.",
    "Your file is too large. The maximum size to publish a game is XXX.": "Your file is too large.\nThe maximum size to publish a game is {%size%}."
}