{
    "Project": "Proyecto",
    "Import a project": "Importar un proyecto",
    "Export the project to a file": "Exportar el proyecto a un archivo",
    "Test play the game": "Prueba jugar el juego",
    "Quit": "Salir",
    "Choose the scene you want to edit": "Elige la escena que quieres editar",
    "Choose the scene you want to start the game with.": "Elige la escena con la que quieres comenzar el juego.",
    "Scenes": "Escenas",
    "Scene": "Escena",
    "Starting point": "Punto de inicio",
    "Edit a scene": "Editar una escena",
    "Create a new scene": "Crear una nueva escena",
    "Text": "Texto",
    "Panel": "Panel",
    "Background color": "Color de fondo",
    "Transparency": "Transparencia",
    "Padding": "Margen interno",
    "Choices": "Opciones",
    "Hovered choice background": "Fondo de la opción hover",
    "Darken": "Oscurecer",
    "Lighten": "Aclarar",
    "No effect": "Sin efecto",
    "This field is required": "Este campo es obligatorio",
    "Validate": "Validar",
    "Cancel": "Cancelar",
    "Edit the current image": "Editar la imagen actual",
    "Create a new image": "Crear una nueva imagen",
    "Import a new image from my computer": "Importar una nueva imagen desde mi ordenador",
    "Selected file": "Archivo seleccionado",
    "Object's name": "Nombre del objeto",
    "General settings": "Ajustes generales",
    "Image ratio": "Proporciones de la imagen",
    "Explain shortly to the player the action you are proposing.": "Explica brevemente al jugador la acción que le propones.",
    "Text to display": "Texte a mostrar",
    "Choose the scene where the player will be directed to after clicking that choice. You can also choose to exit the game.": "Elige la escena a la que se dirigirá el jugador tras hacer clic en esa opción. También puede elegir salir del juego.",
    "Destination": "Destino",
    "Browse scenes": "Buscar escenas",
    "There is no scenes available. Create some and set up this later.": "No hay escenas disponibles. Crea algunas y configura esto más tarde.",
    "Quit the game": "Salir del juego",
    "This will make the program exit if the player clicks the choice.": "Esto hará que el programa salga si el jugador hace clic en la opción.",
    "Select some objects the player must have in the inventory to be able to make that choice.": "Selecciona algunos objetos que el jugador debe tener en su inventario para poder hacer esa elección.",
    "Require objects": "Requerir objetos",
    "Select the required objects. Press the control key to select more than one.": "Seleccione los objetos necesarios. Pulse la tecla de control para seleccionar más de uno.",
    "Select the objects required to do that choice": "Seleccione los objetos necesarios para hacer esta elección",
    "There isn't any object in your game yet": "Todavía no hay ningún objeto en tu juego",
    "Selected objects options": "Opciones de los objetos seleccionados",
    "Remove the object from the inventory when the player clicks the choice.": "Eliminar el objeto del inventario cuando el jugador hace clic en esa opción.",
    "Consume in inventory": "Consumir en el inventario",
    "This message will be poped up to the player if he/she doesn't have the required objects in the inventory": "Este mensaje se mostrará al jugador si no tiene los objetos necesarios en el inventario.",
    "Missing object message": "Mensaje si objeto faltante",
    "Frame rate": "Velocidad de la animación",
    "faster": "más rápido",
    "slower": "más lento",
    "Play as loop": "Reproducir como bucle",
    "Current image": "Imagen actual",
    "Image's name": "Nombre de la imagen",
    "Frame number": "número de cuadros",
    "Choose the next scene": "Elige la siguiente escena",
    "End of cinematic action": "Acción al final de la cinemática",
    "Set up the automatic action to perform at the end of the cinematic": "Configurar la acción automática a realizar al final de la cinemática",
    "Go to the next scene": "Ir a la siguiente escena",
    "End of program": "Fin del programa",
    "A cinematic scene is just an image or an animation to watch for the player, there is no choices, no inventory and no objects.": "Una escena cinemática es sólo una imagen o una animación que el jugador debe ver, no hay opciones, ni inventario, ni objetos.",
    "Playable": "Jugable",
    "Cinematic": "Cinemática",
    "A playable scene has a set of possible actions for the player with the choices, the objects and the inventory.": "Una escena jugable tiene un conjunto de acciones posibles para el jugador con las opciones, los objetos y el inventario.",
    "Scene type": "Type de scène",
    "Objects, choices and text box will be deleted.": "Los objetos, las opciones y el cuadro de texto serán eliminados.",
    "Cinematic duration": "Duración de la cinemática",
    "Cinematic duration in seconds": "Duración de la cinemática en segundos",
    "For a duration 0, the cinematic will stop at the end of the last frame.": "Para una duración 0, la cinemática se detendrá al final del último cuadro.",
    "Import a new track from my computer": "Importar una nueva pista desde mi ordenador",
    "Track's name": "Nombre de la pista",
    "Font family": "Fuente",
    "Italic": "Cursiva",
    "Font size": "Tamaño de letra ",
    "Text color": "Color del texto",
    "New project": "Nuevo proyecto",
    "Hovered choice rounded corners": "Esquinas redondeadas de la opción hover",
    "Hovered choice border width": "Anchura de bordes de la opción hover",
    "Border width": "Anchura de bordes",
    "Columns": "Columnas",
    "Rows": "Líneas",
    "Slots": "Ranuras",
    "Spacing": "Espacio",
    "Rounded corners": "Esquinas redondeadas",
    "Borders width": "Anchura de bordes",
    "Scene settings": "Parámetros de la escena",
    "Set the image or animation": "Definir la imagen o la animación",
    "Play the animation": "Reproducir la animación",
    "Add a text box": "Añadir un cuadro de texto",
    "Delete the text box": "Suprimir el cuadro de texto",
    "Edit the text box": "Editar el cuadro de texto",
    "Add an object to the scene": "Añadir un objeto a la escena",
    "Add sound track to the scene": "Añadir una banda sonora a la escena",
    "Add a choice": "Añadir una opción",
    "Delete the scene": "Suprimir la escena",
    "Delete the scene?": "¿Suprimir la escena?",
    "You have unsaved changes": "Tienes cambios sin guardar",
    "Are you sure you want to exit the project?": "¿Estás seguro de que quieres salir del proyecto?",
    "Ignore the changes": "Ignorar los cambios",
    "Export the changes and exit": "Exportar los cambios y salir",
    "Images, objects and settings of this scene will be deleted.": "Las imágenes, los objetos y los ajustes de esta escena serán eliminados.",
    "Display a message in the scene": "Mostrar un mensaje en la escena",
    "Add a new choice to the scene": "Añadir una nueva opción a la escena",
    "Modify the choice": "Modificar la opción",
    "Delete that choice": "Suprimir esa opción",
    "Properties of the scene": "Propiedades de la escena",
    "Add a new object to the scene": "Añadir un nuevo objeto a la escena",
    "Start a new game project": "Iniciar un nuevo proyecto de juego",
    "Load a project": "Cargar un proyecto",
    "Load a game project from a file": "Cargar un proyecto de juego desde un archivo",
    "The File API is not supported by your browser.": "La API File no es compatible con su navegador.",
    "Error : Your browser doesn't support file reading :(": "Error : Tu navegador no soporta la lectura de archivos :(",
    "No file selected": "Ningún archivo seleccionado",
    "Modify the object": "Modificar el objeto",
    "Preview in the inventory": "Vista previa en el inventario",
    "Hide the inventory preview": "Ocultar la vista previa del inventario",
    "Remove this object from the scene": "Suprimir ese objeto de la escena",
    "Set up the image of the scene": "Definir la imagen de la escena",
    "Set up the sound track of the scene": "Definir la pista sonora de la escena",
    "Delete the track": "Suprimir la pista",
    "Click to modify the title of the project": "Haz clic para modificar el título del proyecto",
    "Click to modify the title of this scene": "Haz clic para modificar el título de la escena",
    "Box": "Cuadro",
    "Text boxes settings": "Configuración del cuadro de texto",
    "Choices panel settings": "Configuración del panel de opciones",
    "Inventory panel settings": "Configuración del panel de inventario",
    "Settings": "Configuración",
    "Max character number reached": "Número máximo de caracteres alcanzado",
    "mentalo-about.paragraph": "Mentalo es una aplicación educativa que permite construir el razonamiento lógico a través de la creación de juegos sencillos basados en pantallas estáticas y elecciones textuales.",
    "Text align": "Alineación del texto",
    "Left": "Izquierda",
    "Right": "Derecha",
    "Center": "Centrado",
    "Normal": "Normal",
    "Thin": "Delgado",
    "Bold": "Negrita",
    "Image is too large to be edited with that tool.": "La imagen es demasiado grande para ser editada con esa aplicación.",
    "Preferences": "Preferencias",
    "Language": "Idioma",
    "Application language": "Idioma de la aplicación",
    "Learn": "Aprender",
    "Learn how to use the app with the user manual.": "Aprende a utilizar la aplicación con el manual de usuario.",
    "Open the documentation": "Abrir la documentación",
    "Project is loading": "El proyecto se está cargando",
    "Games": "Juegos",
    "Explore, play and publish games": "Explorar, jugar y publicar juegos",
    "Error, couldn't fetch games": "Error al recuperar los juegos",
    "Please type at least 3 characters to make a search query.": "Por favor, escribe al menos 3 caracteres para iniciar la búsqueda.",
    "Error fetching search results": "Error al recuperar los resultados de la búsqueda",
    "Sort by": "Ordenar por",
    "Previous page": "Página anterior",
    "Next page": "Página siguiente",
    "Search games by name": "Buscar juegos por nombre",
    "Publish": "Publicar",
    "Publish a new game or update one of those you already published.": "Publica un nuevo juego o actualiza uno de los que ya has publicado.",
    "All games are published under Creative Commons license": "Todos los juegos se publican bajo una licencia <a href='{%license_link%}' target='_blank'>Creative Commons</a>.",
    "By": "Por",
    "Published the dd/mm/yyyy": "Publicado el {%date_text%}",
    "Play": "Jugar",
    "Download": "Descargar",
    "Open in the editor": "Abrir en el editor",
    "Select this mode if want to publish a new game": "Selecciona este modo si quieres publicar un nuevo juego",
    "Update": "Actualizar",
    "Select this mode if you want to publish a new version of a game you already published.": "Seleccione este modo si quieres publicar una nueva versión de un juego que ya has publicado.",
    "Load your game file": "Carga el archivo de tu juego",
    "File": "Archivo",
    "Publication information": "Información de la publicación",
    "Infos": "Información",
    "Choose a banner image": "Elige una imagen de banner",
    "Banner": "Banner",
    "Send the publication": "Enviar la publicación",
    "Find your game": "Encuentra tu juego",
    "Find": "Encontrar",
    "Load the new version": "Cargar la nueva versión",
    "Send the new version": "Enviar la nueva versión",
    "This image is too heavy. Please select an image with size below 300KB": "Esta imagen es demasiado pesada. Por favor, seleccione una imagen con un tamaño inferior a 300KB",
    "warn.new-version-same-title": "Tu nueva versión tiene un título diferente, pero el título no se puede cambiar.\nSe mantendrá el título original.\n\n¿Quieres continuar?",
    "Browse your computer and select the .mtl file you exported from the project editor.": "Navega por tu ordenador y selecciona el archivo .mtl que has exportado desde el editor de proyectos.",
    "Loaded game": "Juego cargado",
    "Find the previous version of the game you want to update.": "Busca la versión anterior del juego que quieres actualizar.",
    "Type the name of the game": "Escribe el nombre del juego",
    "Results": "Resultados",
    "Select the game to update": "Selecciona el juego que quieres actualizar",
    "Select the game to delete": "Selecciona el juego que quieres eliminar",
    "Select this game": "Seleccionar ese juego",
    "Server error": "Error del servidor",
    "Fill some public information about you and your game.": "Rellena alguna información pública sobre ti y tu juego.",
    "Your author name": "Su nombre de autor",
    "A web site (optional)": "Un sitio web (opcional)",
    "Description of your game": "Descripción de su juego",
    "Choose a banner image for the public overview of your game.": "Elige una imagen de banner para el vistazo público de tu juego.",
    "Everything is set, it's time to send the package!": "Todo está listo, ¡es hora de enviar el paquete!",
    "info.publish-legal": "Al enviar tu juego a la base de datos de Mentalo, estás aceptando nuestra <a href='/v/publishing-policy/es' target='_blank'>política de publicación</a>.<br />Una vez enviado tu juego, recibirás un correo electrónico de confirmación.<br />Una vez confirmado, comprobaremos que tu juego cumple con nuestras condiciones de publicación. Tu dirección de correo electrónico se utilizará para los correos de confirmación, las notificaciones y para autentificarte como autor del juego si deseas publicar una actualización. No se te enviará ninguna otra comunicación. Tu correo electrónico se almacena encriptado y nunca será compartido con nadie.<br /><br /><strong><green>¡Muchas gracias por tu contribución!</green></strong>",
    "Your email address": "Tu dirección de correo electrónico",
    "Your new version of *** is ready to be sent!": "¡Tu nueva versión de {%game_name%} está lista para ser enviada!",
    "info.update-legal": "Al enviar tu juego a la base de datos de Mentalo, aceptas nuestra <a href='/v/publishing-policy/es' target='_blank'>política de publicación</a>.<br />Una vez enviada tu nueva versión, recibirás un correo electrónico de confirmación y el juego se actualizará públicamente en cuanto confirmes tu envío.<br /><br />Tu dirección de correo electrónico se utilizará para los correos de confirmación, las notificaciones y para autentificarte como autor del juego si deseas publicar una actualización. No se te enviará ninguna otra comunicación. Tu correo electrónico se almacena encriptado y nunca será compartido con nadie.<br /><br /><strong><green>¡Muchas gracias por tu contribución!</green></strong>",
    "It's sent!": "¡Se ha enviado!",
    "If you didn't receive the email": "Si no has recibido el correo electrónico",
    "try send it again": "intenta enviarlo de nuevo",
    "Error": "Error",
    "Please try again later. If the problem persists, contact us.": "Por favor, inténtelo de nuevo más tarde. Si el problema persiste, pónte en contacto con nosotros.",
    "Send your game!": "¡Envía tu juego!",
    "Previous": "Anterior",
    "Next": "Siguiente",
    "Close": "Cerrar",
    "Latest": "Más reciente",
    "Oldest": "Más antiguo",
    "Author": "Autor",
    "Please select a .*** file": "Por favor, selecciona a un archivo .{%ext%}.",
    "If you created this game from another one, please use the description to credit the author of the game on which you based yours.": "Si has creado este juego a partir de otro, utiliza la descripción para acreditar al autor del juego en el que has basado el tuyo.",
    "Version n°": "Versión no.",
    "Updated the": "Actulizado el",
    "WARNING: This application is not designed for mobile devices. Display and functionalities may be broken.": "ADVERTENCIA: Esta aplicación no está diseñada para dispositivos móviles. La visualización y la funcionalidad pueden verse afectadas.",
    "Beta in progress": "Beta en curso",
    "Development": "Desarrollo",
    "beta-in-progress.paragraph": "Esta versión de la aplicación Mentalo es una versión Beta y es posible que encuentres algunos fallos de funcionamiento. <br /><br />Si encuentras algún fallo o alguna característica insatisfactoria, por favor, infórmalo enviando un email al mantenedor de la app en <a href='mailto:contact@kuadrado-software.fr'>contact@kuadrado-software.fr</a>.",
    "mentalo-dev.paragraph": "Mentalo es un conjunto de módulos aplicativos libres y de código abierto y los colaboradores son totalmente bienvenidos.<br /><br />Si desea contribuir al desarrollo del proyecto, es bienvenido a interactuar y proponer solicitudes de fusión en los diferentes repositorios",
    "Select this mode if you want to delete a game you published.": "Selecciona este modo si deseas eliminar un juego que has publicado.",
    "Delete": "Eliminar",
    "Find the the game you want to delete": "Busca el juego que quieres eliminar",
    "info.deletion": "Una vez que tu demanda sea enviada y confirmada a través del enlace de confirmación que recibirás por correo electrónico, el moderador a cargo tratará tu demanda y tu juego será eliminado permanentemente de la base de datos.",
    "Send my deletion demand": "Enviar mi demanda de eliminación",
    "Menu": "Menú",
    "Game is loading": "El juego se está cargando",
    "Download in preparation": "Descarga en preparación",
    "Please wait, this can take a while": "Por favor, espera, esto puede llevar un tiempo.",
    "Copy game link": "Copiar el enlace del juego",
    "Link copied to clipboard": "Enlace copiado en el portapapeles",
    "Another scene already has this name": "Otra escena ya tiene ese título",
    "Your file is too large. The maximum size to publish a game is XXX.": "Tu archivo es demasiado grande.\nEl tamaño máximo para publicar un juego es {%size%}.",
    "Another object already has the same name": "Otro objeto ya tiene el mismo nombre",
    "Choose the image to be reused": "Elige la imagen a reutilizar",
    "Choose from the images already imported": "Elije entre las imágenes que ya han sido importadas.",
    "Choose from the soundtracks already imported": "Elije entre las pistas que ya han sido importadas.",
    "Delete unused images": "Eliminar las imágenes no utilizadas",
    "Delete unused soundtracks": "Eliminar las pistas no utilizadas",
    "Choose the soundtrack to be reused": "Elige la pista a reutilizar"
}