{
    "Preferences": "Preferencias",
    "Menu": "Menú",
    "WARNING: This application is not designed for mobile devices. Display and functionalities may be broken.": "ADVERTENCIA: Esta aplicación no está diseñada para dispositivos móviles. La visualización y la funcionalidad pueden verse afectadas.",
    "beta-in-progress.paragraph": "Esta versión de la aplicación Mentalo es una versión Beta y es posible que encuentres algunos fallos de funcionamiento. <br /><br />Si encuentras algún fallo o alguna característica insatisfactoria, por favor, infórmalo enviando un email al mantenedor de la app en <a href='mailto:contact@kuadrado-software.fr'>contact@kuadrado-software.fr</a>.",
    "mentalo-dev.paragraph": "Mentalo es un conjunto de módulos aplicativos libres y de código abierto y los colaboradores son totalmente bienvenidos.<br /><br />Si desea contribuir al desarrollo del proyecto, es bienvenido a interactuar y proponer solicitudes de fusión en los diferentes repositorios",
    "Language": "Idioma",
    "Application language": "Idioma de la aplicación",
    "Documentation": "Documentación",
    "Previous page": "Página anterior",
    "Next page": "Página siguiente",
    "Introduction": "Introducción",
    "here": "aquí",
    "chapter:intro.paragraph": "Bienvenido al libro de documentación de la aplicación <b><green>Mentalo</green></b>.<br /><br />Aquí encontrarás todas las explicaciones que necesitas para utilizar la aplicación.<br /><br />¿Todavía tienes alguna pregunta? Puedes ponerte en contacto con el responsable de la aplicación:<br /><a href='mailto:contact@kuadrado-software.fr'>contact@kuadrado-software.fr</a>",
    "What is Mentalo?": "¿Qué es Mentalo?",
    "chapter:intro.section:what-is-mentalo.paragraph": "<b><green>Mentalo</green></b> es una aplicación web creativa que permite construir juegos sencillos basados en pantallas fijas y opciones en forma de texto clicable.<br /><br />El objetivo principal de Mentalo es educativo. La idea es llevar al usuario de la aplicación a desarrollar el razonamiento lógico a través de la creación de un videojuego muy sencillo.<br />Las habilidades intelectuales que se desarrollan con esta práctica pueden ser un buen primer paso en el aprendizaje de la programación para los más jóvenes.<br />Sin embargo, Mentalo no es un equivalente a <a href='https://fr. scratch-wiki.info/wiki/Scratch_3.0' target='_blank'>Scratch</a> ya que mantiene los conceptos de algoritmos totalmente abstractos y se centra en ser capaz de construir mentalmente un camino lógico.<br /><br />Mentalo puede ser un muy buen ejercicio para cualquier público, no sólo los más jóvenes. Además, puede verse simplemente como una herramienta creativa más que como un ejercicio.<br /><br />Mentalo es un <a href='https://en.wikipedia.org/wiki/Free_and_open-source_software' target='_blank'>software libre y de código abierto</a> publicado bajo una licencia GNU GPL-3.0.<br />El proyecto está creado y mantenido por <a href='https://kuadrado-software.fr' target='_blank'>Kuadrado Software</a>.",
    "Kuadrado Software": "Kuadrado Software",
    "chapter:intro.section:kuadrado-software.paragraph": "<a href='https://kuadrado-software.fr' target='_blank'>Kuadrado Software</a> es un estudio independiente de videojuegos y fabricante de software francés creado por Pierre Jarriges en 2021.<br /><br />\"Tras unos meses intentando enseñar a programar a adolescentes, me di cuenta de que me faltaban algunas herramientas educativas para ayudar a los más jóvenes a desarrollar su capacidad de razonamiento lógico antes de sumergirse en el código. <br /><br />Entonces me acordé de esos viejos videojuegos que se veían en las primeras épocas de los videojuegos, con sólo imágenes fijas y la posibilidad de tomar decisiones escribiendo texto o haciendo clic en algo (ver <a href='https://www.squakenet. com/game/qin/' target='_blank'>Qin</a> por ejemplo), y decidí crear una aplicación que pudiera construir ese tipo de juego sin que el usuario tuviera que escribir código.<br /><br />Así fue como empecé a programar <b><green>Mentalo</green></b>\".",
    "Mentalo games": "Juegos Mentalo",
    "chapter:mentalo-games.paragraph": "El tipo de juego que puede construirse con Mentalo se inspira en algunos de esos viejos videojuegos de aventuras que aparecieron en los años 80, con escenas que constan de una simple ilustración fija, una interfaz minimalista y la posibilidad de tomar decisiones escribiendo texto o pulsando un botón. <br /><br />A pesar de los limitados recursos de que disponían, estos juegos podían proporcionar al jugador una aventura profunda y desafiante.<br /><br />Imágenes:<ul><li>Superior izquierda: Qin - 1988 - ERE Informatique</li><li>Superior derecha: Zak McKracken and the Aliens Mindbenders - 1988 - Lucasfilm Games</li><li>Inferior izquierda: Zombi - 1986 - Ubi Soft</li><li>Inferior derecha: King's Quest - 1984 - Sierra On-Line</li></ul>",
    "How to play": "Cómo se juega",
    "chapter:mentalo-games.section:how-to-play.paragraph": "<ul><li><b><green>Acciones: </green></b>Elige la acción a realizar haciendo clic en una de las opciones que se ofrecen en el panel que hay debajo de la imagen de la escena.</li><li><b><green>Recoger objetos: </green></b>Una escena puede contener objetos que se pueden recoger haciendo doble clic sobre ellos. </li><li><b><green>Inventario: </green></b>Los objetos recogidos se guardan en el panel de inventario, a la derecha de la imagen de la escena.</li><li><b><green>Descarte de objetos: </green></b>Un objeto puede eliminarse del inventario si estás en la escena donde lo recogiste. Descarta el objeto simplemente pulsando sobre él en el inventario.</li><li><b><green>Cuadros de texto: </green></b>Algunas escenas te recibirán con un mensaje en un cuadro sobre la imagen. Puedes cerrarla haciendo clic en la cruz de la parte superior derecha del cuadro de texto.</li><li><b><green>Objetos necesarios: </green></b>Algunas opciones requieren que tengas ciertos objetos en tu inventario. Si no tiene los elementos, la acción no se realizará, aparecerá un mensaje en una ventana emergente y debería darte una pista sobre lo que falta. Cierra la ventana emergente haciendo clic en la cruz.</li><li><b><green>Cinemática: </green></b>Algunas escenas son cinemáticas. En estos casos no tienes acceso a las opciones ni al inventario. Sólo tienes que esperar hasta el final de la cinemática. Pasar a la siguiente escena (o posiblemente al final del programa) ocurrirá automáticamente.</li><li><b><green>Salir del juego: </green></b>Si quieres salir del juego antes de su final natural, puedes hacerlo simplemente pulsando la tecla Escape. (Es posible que tengas que pulsar dos veces si el modo de pantalla completa está activado)</li></ul><br /><br /><b>Errores:</b><br /><em>A veces, por ejemplo si un juego está en construcción o el creador ha cometido un error, puede aparecer un mensaje de error en una ventana emergente o la pantalla puede permanecer en negro. En estos casos, basta con pulsar Escape y salir del juego.</em><br /><ul><li><b><red>Aún no se ha configurado la escena de destino:</red></b>Esto significa que la elección no se ha configurado completamente y el programa no sabe a qué escena debe dirigirte. </li><li><b><red>Pantalla negra: </red></b>Si la pantalla se queda en negro, suele significar que el punto de entrada del juego no tiene ninguna imagen configurada y el juego no puede empezar.</li></ul><br /><br />Eso es todo lo que necesitas saber para jugar a un juego de Mentalo.<br />¡Diviértete!",
    "Structure of a game made with Mentalo": "Estructura de un juego realizado con Mentalo",
    "chapter:mentalo-games.section:structure-of-a-game-made-with-mentalo.paragraph": "Un juego de Mentalo es, básicamente, un conjunto de escenas que se muestran una a una en una interfaz minimalista en función de las elecciones que haga el jugador.<br /><br />La interfaz principal consiste en la imagen de la escena.<br />A la derecha de la imagen hay un panel de inventario en el que el jugador puede almacenar objetos, y en la parte inferior hay un panel que muestra las opciones sobre las que se puede hacer clic. <br /><br />Cada escena tiene una imagen, puede tener una banda sonora, se pueden colocar objetos en ella y ser recogidos por el jugador del inventario, puede mostrar un mensaje en un cuadro de texto y, finalmente, puede ofrecer al jugador hasta 4 opciones de texto sobre las que se puede hacer clic.<br /><br />Una escena puede ser jugable o cinemática.<br />Si una escena es cinemática, no muestra ninguna opción y no tiene objetos. Sólo puede tener una imagen o animación, una banda sonora, una duración, y puede llevar automáticamente o bien a una siguiente escena o al final del juego.<br /><br />Las opciones clicables son definidas por el creador del juego. Muestran un texto breve y se configuran para que lleven a otra escena o al final del juego.<br />También pueden requerir que el jugador tenga ciertos objetos en su inventario y configurar un mensaje que se muestre si el jugador no tiene los objetos.<br /><br /><pre>Juego\n    |_Metadatos de la interfaz: colores, fuentes, proporciones, etc.\n    |_Metadatos juego: \n    |   |_Título\n    |\n    |_Escenas\n    |   - Una escena\n    |       |_Título\n    |       |_Imagen / animación\n    |       |_modo: cinemática o jugable\n    |       |_Banda sonora\n    |       |_Objetos\n    |       |   - Un objeto\n    |       |       |_ imagen\n    |       |       |_ posición\n    |       |   - Otro objeto\n    |       |   - ...\n    |       |_ Elección\n    |       |   - Una elección\n    |       |       |_ Texto clicable mostrado\n    |       |       |_ Siguiente escena (o fin del programa)\n    |       |       |_ Condiciones (objetos necesarios, mensaje si falta, etc.)\n    |       |   - Otra elección\n    |       |   - ...\n    |       |\n    |       (Si escena cinemática)\n    |       |_Acción automática al final de la cinemática\n    |           |_ Duración\n    |           |_ Siguiente escena o fin del programa\n    |   - Otra escena\n    |   - ...\n    |\n    |_ Inventario: Los objetos recogidos por el jugador durante el juego.</pre>",
    "Building a game step by step": "Construir un juego paso a paso",
    "chapter:building-a-game-step-by-step.paragraph": "Esta guía paso a paso te conducirá a través de todas las herramientas de la aplicación siguiendo el camino natural de la construcción de un juego.<br /><br />Esta es una buena forma de iniciarse en la aplicación.",
    "The game logic": "La lógica del juego",
    "chapter:building-a-game-step-by-step.section:game-logic.paragraph": "Antes de empezar a crear cada escena, imagen, objeto, etc., debes tener una visión general de la lógica de tu juego.<br /><br />Para este tutorial vamos a seguir la construcción de un juego llamado \"Home Sweet Home\".<br />El juego completo se puede encontrar <a href='/games/?query=home-sweet-home' target='_blank'>aquí</a>.<br />\"Home Sweet Home\" es un juego muy corto y sencillo, pero la lógica que se utilizaría para construir un juego más grande sería muy parecida.<br /><br />Para imaginarnos mentalmente nuestro juego, haremos un gráfico para describir cada uno de sus elementos esenciales:<br /><ul><li>La trama</li><li>La lista de escenas jugables</li><li>Las cinemáticas</li><li>Los objetos de cada escena</li><li>Mensajes en cuadros de texto</li><li>Las posibles elecciones</li ><li>El tamaño del inventario</li><li>etc.</li></ul><br />Esto nos ayudará a tener una idea clara de cómo se enlazarán las escenas mediante elecciones, qué objetos se necesitarán, cuáles serán los retos para el jugador, etc.<br /><pre><b><green>Proyecto de juego</green></b>:\n    |_<b><green>Título</green></b>: Home sweet home\n    |\n    |_<b><green>Trama</green></b>: Vives en una casa de campo en el bosque, pero has perdido la llave y no puedes entrar. \n    |    Puede que lo hayas perdido en el bosque. Encuentra tu llave y vete a casa. \n    |    ¡Ten cuidado de no perderte en el bosque!\n    |\n    |_<b><green>Interfaz</green></b>:\n    |    |_<b><green>Tamaño del inventario</green></b>: 3 filas, 1 columna\n    |    |_<b><green>Número de opciones por escena</green></b>: 2\n    |\n    |_<b><green>Escenas</green></b>:\n        |_Chalet exterior\n        |    |_<b><green>Descripción</green></b>: Un bonito chalet de madera en un claro. Vista desde el frente.\n        |    |_<b><green>Mensaje cuadro de texto</green></b>: Home sweet home !\n        |    |_<b><green>Elecciones</green></b>:\n        |        |_Entrar en el chalet\n        |        |    |_<b><green>Destino</green></b>: Cinemática chalet interior\n        |        |    |_<b><green>Objeto necesario</green></b>: Llave\n        |        |    |_<b><green>Mensaje si falta un objeto</green></b>: No puedes entrar sin tu llave, \n        |        |        y parece que la has perdido...\n        |        |_Ir a caminar por el bosque.\n        |            |_<b><green>Destino</green></b>: Bosque 1\n        |_ Bosque 1\n        |    |_<b><green>Descripción</green></b>: En el bosque, árboles musgo...\n        |    |_<b><green>Elecciones</green></b>:\n        |        |_Continuar caminando en el bosque\n        |        |    |_<b><green>Destino</green></b>:  Bosque 2\n        |        |_Volver al chalet\n        |            |_<b><green>Destino</green></b>: Chalet\n        |_ Bosque 2\n        |    |_<b><green>Descripción</green></b>: Más profundo en el bosque, 2 caminos se cruzan\n        |    |_<b><green>Elecciones</green></b>:\n        |        |_Tomar el camino de la izquierda\n        |        |    |_<b><green>Destino</green></b>:  Bosque 3\n        |        |_Tomar el camino de la derecha\n        |            |_<b><green>Destino</green></b>:  Bosque 1\n        |\n        |_ Bosque 3\n        |    |_<b><green>Descripción</green></b>: En el bosque, caminos cruzando...\n        |    |_<b><green>Mensaje cuadro de texto</green></b>: Maldita sea ... ¿dónde estaba?\n        |    |_<b><green>Objetos</green></b>:\n        |    |    |_ Llave\n        |    |_<b><green>Elecciones</green></b>:\n        |        |_Tomar el camino de la izquierda\n        |        |    |_<b><green>Destino</green></b>:  Bosque 4\n        |        |_Quedarse en el bosque para siempre\n        |            |_<b><green>Destino</green></b>: Cinemática cabina bosque\n        |\n        |_ Bosque 4\n        |    |_<b><green>Descripción</green></b>: Profundo en el bosque\n        |    |_<b><green>Mensaje cuadro de texto</green></b>: ¿Estoy perdido?\n        |    |_<b><green>Elecciones</green></b>:\n        |        |_Dar media vuelta\n        |        |    |_<b><green>Destino</green></b>:  Bosque 3\n        |        |_Continuar caminando\n        |            |_<b><green>Destino</green></b>:  Bosque 2\n        |    \n        |\n        |_ Cinemática chalet interior\n        |    |_<b><green>Descripción</green></b>: Ambiente acogedor en el chalet.\n        |    |_<b><green>Destino de fin de cinemática</green></b>: Fin del programa\n        |_ Cinemática cabina bosque\n            |_<b><green>Descripción</green></b>: Una pequeña y frágil cabina en el bosque bajo la lluvia. Luego la construcción\n            |    de una cabina mejor, hasta que se convierta en un chalet similar al primero.\n            |_<b><green>Destino de fin de cinemática</green></b>: Fin del programa</pre><br />Bueno, aquí hay un buen planecito, ¡todo lo que tienes que hacer es hacerlo realidad (más o menos)!<br /><br />Tenemos 5 escenas jugables, incluidas 4 escenas de bosque que deberían verse parecidas, y las opciones están configuradas para que el jugador pueda perderse un poco.<br /><br />Hay dos posibles escenas de fin del juego, una en la que el jugador encuentra su llave y se va a casa al chalet, y otra o elige quedarse en el bosque ... y finalmente reconstruye un chalet :).<br /><br />Ahora que tenemos una idea clara de cómo será el juego, ¡manos a la obra!",
    "Image of the scene": "Imagen de la escena",
    "chapter:building-a-game-step-by-step.section:image-of-the-scene.paragraph": "Empecemos la primera escena! <br /><br />Cuando creas un nuevo proyecto de juego la primera vista del tablero que deberías ver es una escena vacía.<br />Una escena es un conjunto de 3 espacios, 1 para la imagen, 1 para el inventario y 1 para el panel de elecciones clicables debajo de la imagen.<br /><br />Definiremos una imagen para esta primera escena.<br /><br />Haz clic en el 2º botón de la barra de herramientas que está encima de la vista del juego. Se abrirá una ventana emergente con algunos ajustes.<br />Puedes elegir simplemente importar una imagen de tu ordenador, o crear una con la herramienta de dibujo incorporada.<br /><br />La herramienta de dibujo es muy limitada, por lo que puede que prefieras utilizar tu programa de dibujo favorito para crear la imagen, esto no es un problema. Sin embargo, la herramienta de dibujo puede ofrecerte algunas ventajas para crear fácilmente una pequeña imagen animada o para evitar tener que manipular los archivos a través de varios programas.<br /><br />Si no utilizas la herramienta de dibujo e importas una imagen desde tu ordenador, cualquier archivo .jpg, .png o .bmp funcionará, pero debes tener cuidado de no elegirlos demasiado grandes. Lo ideal es respetar un máximo de 600 píxeles de ancho.<br /><br />Si deseas importar una imagen animada, los fotogramas de la animación deben estar unidos como una sola imagen (no se admitirá una animación gif.) uno al lado del otro en una fila. Todos los fotogramas deben tener exactamente el mismo tamaño y deben estar precisamente yuxtapuestos entre sí (sin espacio vacío entre fotogramas).<br /><br />En la ventana emergente, puede especificar el número de fotogramas. Si hay más de un fotograma, también puedes establecer la velocidad de desplazamiento de la animación, y configurar si quieres que se reproduzca en bucle o no.<br />Cuando hayas terminado, puedes hacer clic en el botón con la marca verde para confirmar. <br /><br />Si eliges utilizar la herramienta de dibujo, cuando hayas terminado de dibujar tu imagen puedes hacer clic en el botón superior izquierdo para volver al editor con la imagen que acabas de crear.<br /><br />Para nuestro juego \"Home sweet home\", la imagen es una casa de campo en el bosque. Si lo deseas, puedes descargar la imagen original <a href='{%chalet_image_link%}' download='chalet.png'>aquí</a>, ¡pero no dudes en crear la tuya!",
    "Interface customization": "Personalización de la interfaz",
    "chapter:building-a-game-step-by-step.section:interface-customization.paragraph": "En primer lugar, vamos a personalizar algunas cosas en cuanto a la apariencia general de la interfaz de nuestro juego.<br /><br /> Hay 4 botones en la parte inferior de la barra lateral, a la izquierda del tablero:<ul><li><b><green>Parámetros generales</green></b></li><li><b><green>Parámetros de cuadros de texto</green></b></li><li><b><green>Parámetros del panel de elecciones</green></b></li><li><b><green>Parámetros del panel de inventario</green></b></li></ul>Centrémonos por ahora en los ajustes generales y el inventario.<br /><br /><b>Parámetros generales</b>: <ul><li><green>Color de fondo</green>: Choisissez la couleur du fond perdu autour de l'interface de jeu. </li><li><green>Proporciones de la imagen</green>: Establece la relación anchura/altura del espacio que contendrá la imagen de cada escena. 1:1 es un cuadrado, 4:3 es como una pantalla de televisión antigua, 16:9 es más panorámico, etc. </li></ul>Para nuestro juego de demostración \"Home Sweet Home`\" elegiremos <b><green>14:10</green></b>.<br /><br /><b>Parámetros del panel de inventario</b>:<br />Aquí gestionaremos la apariencia de la parrilla del inventario que está en el lado derecho del espacio de juego.<br /><ul><li><b>Panel:</b><ul><li><green>Columnas</green>: El número de ranuras en la dirección horizontal. </li><li><green>Lignes</green>: El número de ranuras en la dirección vertical. </li><li><green>Color de fondo</green>: El color del panel. </li></ul></li><li><b>Ranuras</b>: <ul><li><green>Espacio</green>: Ajusta la cantidad de espacio entre cada ranura. </li><li><green>Esquinas redondeadas</green>: Redondea las esquinas de los bordes de las ranuras. </li><li><green>Anchura de los bordes</green>: Ajusta el espesor de los bordes de las ranuras. </li></ul></li></ul><br />Para la demo de Home Sweet Home, sólo se necesita realmente una ranura, por lo que puedes establecerla en 3 ranuras (3 filas y 1 columna), que es el mínimo.",
    "Set the titles": "Establecer los títulos",
    "chapter:building-a-game-step-by-step.section:titles.paragraph": "Podríamos haberlo hecho antes o después, pero ahora es un buen momento para configurar correctamente el título del juego y el título de la escena.<br /><br />Ya te habrás dado cuenta de que el título de tu juego está escrito en la parte superior izquierda del tablero. Por defecto está configurado como \"Nuevo proyecto\". Para modificarla, basta con hacer clic en ella, escribir el texto y pulsar enter ↵ para validar.<br /><br />El título de la escena aparece en la parte superior derecha del tablero. Por defecto, la escena se llama \"Escena 1\" (o Escena 2 o 3, etc., para las escenas siguientes). Puedes cambiarlo de la misma manera que acabas de hacer con el título del juego.<br /><br />Puedes cambiar estos títulos en cualquier momento.",
    "Add a text box to the scene": "Añadir un cuadro de texto a la escena",
    "chapter:building-a-game-step-by-step.section:add-text-box-to-scene.paragraph": "El cuadro de texto de una escena te da la opción de mostrar un mensaje en el momento en que el jugador entra en esa escena.<br /><br />Para hacerlo, haz clic en el botón de la barra de herramientas superior, el que tiene un icono de diálogo. <br />Escriba su mensaje en el cuadro de entrada de texto de la ventana emergente.<br />Cuando termine, valide.<br />Para la demostración, escribiremos <green>\"¡Home Sweet Home!\"</green>.<br />Una vista previa de su cuadro de texto aparece en la pantalla. Puedes cerrarlo con la cruz pequeña.<br /><br />El mensaje se mostrará sobre la imagen cuando el jugador entre en la escena.<br /><br />Puedes editar tu texto haciendo doble clic en la vista previa del cuadro de texto, o haciendo clic en el botón de la barra de herramientas.<br /><br />También puedes personalizar un poco el aspecto de los cuadros de texto de tu juego.<br />Para ello, haz clic en el botón con un icono de diálogo de la barra de herramientas de la izquierda. Aparecerá un menú y podrás establecer algunas opciones de estilo:<br /><ul><li><green>Texto:</green>Elije la fuente, el tamaño de la letra, la alineación, etc.</li><li><green>Caja:</green>Estiliza la propia caja, el fondo, el borde, etc.</li></ul>.",
    "Soundtrack of the scene": "Banda sonora de la escena",
    "chapter:building-a-game-step-by-step.section:soundtrack-of-the-scene.paragraph": "Puedes añadir una pista de sonido a tu escena, música o sonidos ambientales, por ejemplo.<br /><br />Haz clic en el botón con el icono de las notas musicales en la barra de herramientas para abrir la ventana emergente de la pista de sonido.<br />Importa un archivo de audio desde tu ordenador (como .mp3, .wav, .ogg, etc). <br />Si quieres que tu juego sea lo más ligero posible, prefiere pistas cortas y reproducirlas en bucle en lugar de pistas más largas.<br /><br />Si quieres que tu pista se reproduzca indefinidamente en bucle durante la escena, marca la casilla \"reproducir en bucle\".<br /><br />Opcionalmente puedes personalizar el título de tu pista. Si no lo haces, se utilizará el nombre del archivo.<br /><br />La banda sonora comenzará a reproducirse cuando el jugador llegue a la escena, y se detendrá cuando ésta cambie.<br /><br /><strong>Descarga las pistas originales de la demo del juego Home Sweet Home</strong><ul><li>Chalet: <a href='{%chalet_sound_link%}' download='chalet.mp3'>chalet.mp3</a></li><li>Bosque 1: <a href='{%forest_1_sound_link%}' download='forest1.mp3'>forest_1.mp3</a></li><li>Bosque 2: <a href='{%forest_2_sound_link%}' download='forest2.mp3'>forest_2.mp3</a></li><li>Bosque 3: <a href='{%forest_3_sound_link%}' download='forest3.mp3'>forest_3.mp3</a></li><li>Bosque 4: <a href='{%forest_4_sound_link%}' download='forest4.mp3'>forest_4.mp3</a></li><li>Cinemática interior chalet: <a href='{%fire_sound_link%}' download='fire.mp3'>fire.mp3</a></li><li>Cinemática lluvia: <a href='{%rain_sound_link%}' download='rain.mp3'>rain.mp3</a></li><li>Cinemática construcción cabaña: <a href='{%brico_sound_link%}' download='brico.mp3'>brico.mp3</a></li><li>Cinemática cabaña: <a href='{%cabin_sound_link%}' download='cabin.mp3'>cabin.mp3</a></li></ul>",
    "Add objects to the scene": "Añadir objetos a la escena",
    "chapter:building-a-game-step-by-step.section:add-objects.paragraph": "Tienes la posibilidad de añadir objetos a las escenas jugables.<br /><br />En nuestro juego de demostración \"Home Sweet Home\", añadiremos una pequeña llave metálica a la escena del Bosque 3.<br /><br />Puedes volver a una escena y editarla utilizando el menú desplegable \"Editar escena\" de la barra de herramientas de la izquierda.<br /><br />En Mentalo, un objeto es una imagen, un nombre y una posición en la imagen de la escena. <br /><br />El jugador puede recoger objetos de una escena haciendo doble clic sobre ellos.<br />Cuando un objeto es recogido por el jugador, desaparece de la escena y aparece en una ranura del panel de inventario.<br />Si en algún momento del juego el jugador necesita liberar una ranura del inventario, un objeto puede ser devuelto a su lugar haciendo clic sobre él en su ranura de inventario.<br />Un objeto sólo puede ser liberado en la escena en la que fue recogido. Esta es una restricción que puedes utilizar en tu lógica de juego para añadir dificultad.<br /><br />Para añadir un nuevo objeto a la escena, haz clic en el botón con un cono y un cuadrado en la barra de herramientas. La ventana emergente le permite elegir entre descargar una imagen de su ordenador o crear una con la herramienta de dibujo.<br /><br />Cuando abre la herramienta de dibujo desde la ventana emergente de objetos, la herramienta se abre en modo \"objeto\": el fondo es transparente, la imagen es más pequeña que en el modo escena y el modo de animación no está disponible. <br /><br />Cuando haya terminado de dibujar, puede volver con la imagen haciendo clic en el botón de la parte superior izquierda con una marca.<br /><br />La imagen del objeto aparece en la esquina superior izquierda de la imagen de la escena. Puedes arrastrarlo a la posición que quieras.<br /><br />Si haces doble clic en tu objeto, puedes editarlo: cambiar su nombre e imagen.<br /><br />Puedes descargar la imagen original de la llave <a href='{%_image_link%}' download='key.png'>aquí</a>.",
    "Create the choices of the scene": "Crear las opciones de la escena",
    "chapter:building-a-game-step-by-step.section:create-the-choices-of-the-scene.paragraph": "Ahora llegamos a la parte más importante: las opciones que ofrecerás al jugador.<br /><br />En términos de gameplay, para el jugador, una opción será simplemente un breve texto sobre el que se puede hacer clic en la parte inferior del tablero de juego.<br />Hacer clic en una opción puede llevar a una siguiente escena, o terminar el programa. <br />También puedes decidir que el jugador tenga que haber recogido ciertos objetos para poder elegir.<br /><br />Abre la ventana emergente haciendo clic en el segundo botón de la derecha en la barra de herramientas.<br /><br />Escribe tu texto en el campo de entrada. El texto debe ser lo más breve posible y dar al jugador información clara sobre lo que ocurrirá con esta elección. Por ejemplo: \"Salir a la calle\" o \"Visitar el piso\", \"Encender la máquina\", etc.<br /><br />Para nuestro juego de demostración Home Sweet Home, tenemos 2 opciones por escena para definir. Si volvemos a nuestro plan (véase la sección  \"La lógica del juego \"), vemos que para la primera escena tenemos:<ul><li>Entrar en el chalet</li><li>Ir a caminar por el bosque</li></ul>Así que vamos a rellenar la entrada de texto con  \"Entrar en el chalet\".<br /><br />Debajo del campo de texto, hay un menú desde el que puedes elegir qué escena se mostrará después de que el jugador haga clic en la elección. También puedes elegir  \"Salir del juego \", pero a estas alturas no sería muy divertido terminar el juego :). Por el momento no hay escenas que recorrer ya que aún estamos creando la primera escena. Así que lo dejaremos en blanco y volveremos más tarde para configurar las opciones y enlazar las escenas entre sí.<br />Así que validaremos ésta así.<br /><br />Repite la operación y crea otra opción con el texto \"Ir a caminar por el bosque\"<br /><br />Deberías ver las opciones que acabas de crear desplegadas en el panel debajo de la imagen de la escena.<br /><br />Puedes editar una opción haciendo clic en ella.",
    "Create new scenes": "Crear nuevas escenas",
    "chapter:building-a-game-step-by-step.section:create-new-scenes.paragraph": "Hemos creado nuestra primera escena. Ahora es el momento de añadir más. El proceso es el mismo para cada escena, así que lo aceleraremos un poco. Describiré aquí la creación de todas las escenas jugables restantes (es decir, todas las escenas que no son cinemáticas, hablaremos de las cinemáticas más adelante). Tomemos nuestro plan descrito en la sección de Lógica de Juego, vemos que tenemos 4 escenas de bosque, y una de ellas contiene la llave que el jugador tiene que encontrar.<br /><br />No olvides poner el título de las escenas que crea. Le será más fácil encontrarlos como destinos en las elecciones. Para crear una nueva escena, haz clic en el icono \"+\" de la sección \"escenas\" de la barra de herramientas de la izquierda. de la barra de herramientas de la izquierda. <ul><li><b><green>Bosque 1:</green></b><ul><li><b>Imagen:</b>Árboles, musgo..., obtener la imagen original <a href='{%forest_1_image_link%}' download='Forest_1.png'>aquí</a></li><li><b>Elecciones:</b><ul><li>Seguir caminando por el bosque: Por ahora, sólo crea la opción con el texto y deja la escena de destino vacía hasta que la creemos.</li><li>Regreso al chalet: Para este, tenemos la escena de destino, así que ya podemos seleccionarla. selecciónelo ahora. Establece el texto, y selecciona tu escena \"chalet\" como el escena de destino.</li></ul></li></ul></li><li><b><green>Bosque 2:</green></b><ul><li><b>Imagen:</b> En lo más profundo del bosque, dos caminos se cruzan. obtener la imagen original <a href='{%forest_2_image_link%}' download='Forest_2.png'>aquí</a></li><li><b>Elecciones:</b><ul><li>Tomar el camino de la izquierda: escribe el texto y deja el destino vacío hasta que crees la escena del Bosque 3</li><li>Tomar el camino de la derecha: escribe el texto y selecciona el Bosque 1 como escena de destino.</li></ul></li></ul></li><li><b><green>Bosque 3:</green></b><ul><li><b>Imagen:</b> En el bosque, caminos cruzando. Imagen original <a href='{%forest_3_image_link%}' download='Forest_3.png'>aquí</a></li><li><b>Mensaje cuadro de texto:</b> \"Maldita sea... ¿Por dónde era?\"</li><li><b>Elecciones:</b><ul><li>Tomar el camino de la izquierda: Escribe el texto y deja el destino en blanco hasta que hayas creado la escena del Bosque. </li><li>Quedarse en el bosque para siempre: Escribe el texto y deja el destino en blanco antes de crear la cinemática \"Cabina bosque lluvia\".</li></ul></li></ul></li><li><b><green>Bosque 4:</green></b><ul><li><b>Imagen:</b>En lo profundo del bosque. Imagen original <a href='{%forest_4_image_link%}' download='Forest_4.png'>aquí</a></li><li><b>Mensaje cuadro de texto:</b> \"¿Estoy perdido?\"</li><li><b>Elecciones:</b><ul><li>Volver sobre sus pasos: escribe el texto y elige el Bosque 3 como escena de destino.</li><li>Seguir caminando: escribe el texto y elige el Bosque 2 como destino.</li></ul></li></ul></li></ul><br />Así que ahora hemos creado más o menos todas las escenas jugables. Todavía tenemos que volver a configurar los destinos que se han dejado en blanco en algunas de las opciones, y tenemos que ocultar el objeto \"llave\" en la escena del bosque 3. Volveremos a hablar de esto en la siguiente sección.",
    "Create the cinematics": "Crear las cinemáticas",
    "chapter:building-a-game-step-by-step.section:cinematics.paragraph": "Hemos creado todas las escenas jugable. Ahora hablaremos de las cinemáticas.<br />Una escena cinematográfica es relativamente más sencilla que una escena jugable, ya que se limita a una imagen o animación mostrada durante un tiempo determinado, y la acción automática a realizar al final de ese tiempo, que puede ser dirigir al jugador a la siguiente escena o salir del juego. a la siguiente escena, o salir del juego. <br /><br />Cuando se establece el tipo de una escena como cinemática, no se muestra el panel de inventario, ni el panel de opciones..<br /><br /><strong>Cómo crear una escena de tipo \"Cinemática\"? </strong><br /><br />Puedes definir el tipo de escena -entre otros parámetros- haciendo clic en el botón \"Configuración de la escena\": el primer botón de la barra de herramientas superior, En el menú desplegable \"Tipo de escena\", selecciona \"Cinematográfica\". En este punto, debería ver que aparecen nuevos ajustes en el menú.<br /><ul><li><b>Duración de la cinemática :</b> Es el número de segundos que se mostrará la cinemática.<br /> Si estableces este valor en 0, la cinemática se detendrá cuando todos los fotogramas de la animación se hayan reproducido. Pero cuidado, si la imagen de la escena no es una animación (es decir, sólo tiene una imagen), la cinemática se detendrá inmediatamente. Del mismo modo, para una duración de 0, si la animación está configurada para ser reproducida en bucle, la cinemática se ejecutará eternamente... </li><li><b>Fin de la acción de la cinemática:</b> Esta es la acción que se realizará automáticamente cuando la cinemática termine. Puedes elegir pasar a otra escena o terminar el programa.</li></ul><br /><br />Para nuestro juego de demostración \"Home Sweet Home\", crearemos principalmente 2 secuencias cinemáticas.<br /><ul><li><b><green>Cinemática chalet interior</green></b> : Una pequeña animación que muestra un ambiente agradable y acogedor dentro del chalet que se mostrará si el jugador entra en el chalet.<br />Descargar la animación original <a href='{%cinematic_inside_chalet_image_link%}' download='cinematic_inside_chalet.png'>aquí</a> (6 fotogramas)<br /><br /></li><li><b><green>Cinemática cabina bosque</green></b>: Esta es la animación que se mostrará si el jugador elige la opción \"Quedarse en el bosque para siempre\". Vamos a construir esta cinemática de forma más compleja que la primera porque vamos a crear una cadena de 3 cinemáticas. <ul><li><b><green>Cinemática cabina 1</green></b>: Una breve animación que muestra una frágil cabaña bajo la lluvia en el bosque.<br />La \"acción final de cinemática\" se ajustará a <i>Pasar a la siguiente escena &gt; <green>Cinemática cabina 2</green></i><br />Descargar la animación original <a href='{%cinematic_cabin_1_image_link%}' download='cinematic_cabin_1.png'>aquí</a> (3 fotogramas)<br /><br /></li><li><b><green>Cinemática cabina 2</green></b>: Una animación que muestra la construcción de una cabina mejor.<br />La \"acción final de cinemática\" se ajustará a <i>Pasar a la siguiente escena &gt; <green>Cinemática cabina 3</green></i><br />Descargar la animación original <a href='{%cinematic_cabin_2_image_link%}' download='cinematic_cabin_2.png'>aquí</a> (3 fotogramas)<br /><br /></li><li><b><green>Cinemática cabina 3</green></b>: La nueva cabaña está terminada. <br />La \"acción final de cinemática\" se ajustará a <i><green>Fin del programa</green></i><br />Descargar la animación original <a href='{%cinematic_cabin_3_image_link%}' download='cinematic_cabin_3.png'>aquí</a> (4 fotogramas) </li></ul></li></ul>",
    "Complete the playable scenes configuration": "Completar la configuración de las escenas jugables",
    "chapter:building-a-game-step-by-step.section:complete-configuration.paragraph": "Ya casi hemos terminado. Todas las escenas jugables están creadas, las cinemáticas están creadas, así que ahora vamos a enlazarlo todo rellenando los parámetros que quedan en blanco.<br /> Seleccionemos las escenas que tenemos que editar una por una, y completemos todo lo que hay que hacer. <ul><br /><li>Editar una escena &gt; <b><green>Chalet</green></b><br />&gt; <i>Elección::</i>Entrar en el chalet &gt; <b>Destino</b> &gt; <green>Cinemática interior chalet</green><br />- <b>Objetos necesarios</b> &gt; <green>llave</green><br />- <b>Mensaje si falta un objeto</b> &gt; \"No puedes entrar sin tu llave, pero parece que la has perdido...\" <br />- <i>Elección::</i>Ir a caminar en el bosque &gt; <b>Destino</b> &gt; <green>Bosque 1</green></li><br /><li>Editar une escena &gt; <b><green>Bosque 1</green></b><br />&gt; <i>Elección::</i>Seguir caminando en el bosque &gt; <b>Desino</b> &gt; <green>Bosque 2 </green></li><br /><li>Editar una escena &gt; <b><green>Bosque 2</green></b><br />&gt; <i>Elección::</i>Tomar el camino de la izquierda &gt; <b>Destino</b> &gt; <green>Bosque 3</green></li><br /><li>Editar una escena &gt; <b><green>Bosque 3</green></b><br />&gt; <i>Elección::</i>Tomar el camino de la derecha &gt; <b>Destino</b> &gt; <green>Bosque 4</green><br />- <i>Elección::</i>Quedarse en el bosque para siempre &gt; <b>Destino</b> &gt; <green>Cinemática cabina 1</green></li><br /><li>Editar una escena &gt; <b><green>Cinemática cabina 1</green></b><br />&gt; Configuración de la escena (primer botón de la barra de herramientas superior) &gt; <b>Pasar a la siguiente escena</b> &gt; <green>Cinemática cabina 2</green></li><br /><li>Editar una escena &gt; <b><green>Cinemática cabina 2</green></b><br />&gt; Configuración de la escena &gt; <b>Pasar à la siguiente escena</b> &gt; <green>Cinemática cabina 3 </green></li></ul>",
    "Game starting point": "Punto de inicio del juego",
    "chapter:building-a-game-step-by-step.section:game-starting-point.paragraph": "Ya hemos creado todas las escenas, jugables y cinemáticas. Los objetos están en su sitio y las opciones están totalmente configuradas. Ya casi estamos! <br /><br />Lo último que tienes que hacer es ocuparte de la escena que será el punto de inicio del juego. <br /><br />Para ello, haz clic en el menú desplegable \"Punto de inicio\" de la sección Escenas de la barra lateral, y selecciona la escena que quieres que sea la primera que se muestre cuando el jugador inicie el juego.<br /><br />Para nuestro juego \"Home sweet home\", debes seleccionar la escena <b><green>Chalet</green></b>.",
    "Finalization of the interface customization": "Finalización de la personalización de la interfaz",
    "chapter:building-a-game-step-by-step.section:finalization-interface-customization.paragraph": "Bueno, el juego está hecho 🎮😊!<br /><br />Ahora podríamos ocuparnos de los últimos pequeños detalles sobre la apariencia de la interfaz, como qué color quieres para los fondos, qué ancho para los bordes, fuentes, tamaños de texto, etc.<br />Esto se hará con los ajustes que puedes encontrar en la parte inferior de la barra lateral. <br /><br />Ya hemos visto cómo personalizar la apariencia del panel de inventario y los ajustes generales para la forma de las imágenes y el fondo principal.<br />Ahora podemos echar un vistazo a los ajustes de los cuadros de texto, y a los ajustes del panel de elección.<br /><ul><li><b>Ajustes de los cuadros de texto</b>: Estos ajustes se aplicarán a todos los cuadros de texto que hayas definido en el juego. Puede elegir el tipo de letra, el modo de alineación del texto, el color del mismo, etc. También puedes elegir un color de fondo, puedes redondear las esquinas y hacer que el borde sea más grueso.<br /><br /></li><li><b>Configuración del panel de elecciones</b>: Esta configuración también se aplicará a todas las escenas del juego. Puedes personalizar la apariencia del texto, puedes configurar el espacio que quieres poner alrededor de las elecciones (relleno del panel), puedes ajustar el relleno interno de las elecciones, y elegir un efecto de color cuando pasas el ratón por encima de una elección (aclarar, oscurecer o ninguno).<br />También puedes redondear las esquinas de la parte inferior de las elecciones (visibles cuando pasas el ratón por encima de las elecciones)</li></ul>.",
    "Export the project": "Exportar el proyecto",
    "chapter:building-a-game-step-by-step.section:export-project.paragraph": "En cualquier momento puedes exportar tu trabajo a un archivo y guardarlo en cualquier lugar de tu ordenador.<br /><br />Podríamos haber tratado este tema mucho antes, ya que es realmente muy importante, ya que es la única forma de guardar tu trabajo en curso. <br />Puedes exportar tu proyecto haciendo clic en el icono de exportación situado en la parte superior izquierda del tablero.<br />También puedes hacer lo mismo pulsando Control+S.<br /><br />Esto te pedirá que aceptes la descarga de un archivo con extensión .mtl (.mtl para mentalo) y con el nombre del título que le has dado a tu juego.",
    "Import a project": "Importar un proyecto",
    "chapter:building-a-game-step-by-step.section:import-project.paragraph": "Ya hemos visto cómo guardar el trabajo en un archivo. Esta sección trata sobre cómo importarlo.<br /><br />Puedes importar un archivo guardado desde la página principal de la app de Mentalo con el botón \"Cargar un proyecto\", o desde la app, con el botón de importación en la parte superior izquierda del dashboard.<br /><br />Se abrirá una ventana emergente del sistema y podrás seleccionar el archivo que quieres subir. Sólo podrás seleccionar archivos .mtl.<br /><br />Si no has movido el archivo que exportaste previamente, probablemente se encuentre en tu directorio de Descargas.",
    "Test playing the game": "Probar el juego",
    "chapter:building-a-game-step-by-step.section:test-playing-game.paragraph": "Todo está listo, ¡probemos tu nuevo juego!<br /><br />En cualquier momento, puedes probar a jugar el juego que estás construyendo simplemente pulsando el botón Play en la barra lateral. <br /><br />Si intentas jugar a tu juego pero faltan algunos ajustes, como si no se ha establecido un destino para una elección, o si no has establecido el final del programa en alguna parte, no pasa nada, puede que veas una pequeña ventana emergente de error y puedes salir del juego pulsando Escape. Esto te llevará de vuelta a donde estabas, en el editor.",
    "Application functionalities reference": "Referencia de las funcionalidades de la aplicación",
    "chapter:app-functionalities-reference.paragraph": "Este capítulo describe todas las funcionalidades de Mentalo.<br />También puedes seguir la guía paso a paso (Capítulo: Construir un juego paso a paso) para una forma más intuitiva de empezar con Mentalo.",
    "Import / export a project": "Importar / exportar un proyecto",
    "chapter:app-functionalities-reference.section:import-export-project.paragraph": "<strong>Importar un proyecto</strong><br /><br />Puedes importar un proyecto de juego tanto en el editor de juegos de Mentalo desde la página principal de la app de Mentalo con el botón \"Cargar proyecto\", o desde la app con el botón de importación en la parte superior izquierda del dashboard. <br />Un archivo de proyecto de juego de Mentalo tiene una extensión .mtl.<br /><br /><strong>Exportar un proyecto</strong><br /><br />En cualquier momento, puedes exportar tu proyecto de juego. Esta es actualmente su única manera de guardar su trabajo en progreso, por lo que debes hacerlo con bastante frecuencia.<br />Para exportar un proyecto, simplemente pulsa el botón con un icono de exportación en la parte superior izquierda del tablero del editor.<br /><br />Se te pedirá que aceptes la descarga de un archivo .mtl. Guarda el archivo en cualquier lugar de tu ordenador.<br /><br />Ten en cuenta que puedes conseguir lo mismo pulsando <b>Control + S</b>.",
    "Images": "Imágenes",
    "chapter:app-functionalities-reference.section:images.paragraph": "Un juego de Mentalo es esencialmente un conjunto de escenas, y cada escena tiene una imagen.<br />Puedes definir esta imagen haciendo clic en el segundo botón de la barra de herramientas superior.<br /><br />La imagen de una escena puede ser una sola imagen o una animación.<br />Una animación es una imagen con múltiples cuadros (fotogramas). Todas las imágenes deben colocarse una al lado de la otra en el mismo archivo de imagen. No debe haber absolutamente ningún espacio vacío entre cada fotograma.<br />Si la imagen que elijas no coincide exactamente con la proporción que elijas en los ajustes generales (ver el botón con el icono de un cubo en la barra lateral, la proporción puede establecerse en 4:3, 16:9, 1:1, etc.), aparecerá centrada sobre un fondo negro.<br /><br />Tienes dos formas de establecer la imagen para una escena:<br /><ul><li>Descargando un archivo de imagen desde tu ordenador. (.png, .jpg o .bmp...)</li><li>Creando una imagen con la herramienta de dibujo incorporada.<br />La herramienta de dibujo es muy limitada, por lo que es posible que prefieras utilizar tu aplicación de dibujo favorita para crear una imagen, pero el uso de ésta puede ofrecer cierta comodidad para crear una animación y evitar manipular el archivo a través de varias aplicaciones. </li></ul><br />Cuando tu imagen se crea o se sube, puedes especificar el número de fotogramas si se trata de una animación (esto se hará automáticamente si la imagen se crea con la herramienta de dibujo incorporada, pero no si subes tu propio archivo), luego puedes ajustar la velocidad de la animación, y especificar si la animación debe hacer un bucle o no.",
    "Soundtracks": "Bandas sonoras",
    "chapter:app-functionalities-reference.section:soundtracks.paragraph": "Para cada escena tienes la opción de añadir una banda sonora.<br /><br />Haz clic en el botón con las notas musicales en la barra de herramientas superior, esto abrirá la ventana emergente con las opciones de la banda sonora.<br />Puedes cargar una nueva pista o eliminar la actual, y puedes especificar si la pista que has elegido debe reproducirse en bucle o no.<br /><br />Tenga en cuenta que si dos escenas se suceden y tienen la misma pista, ésta no empezará al principio cuando se cambie de una escena a otra.",
    "Objects": "Objetos",
    "chapter:app-functionalities-reference.section:objects.paragraph": "Una escena puede contener objetos. <br /><br />Un objeto es una pequeña imagen, tiene un nombre, y una posición en la imagen de la escena y puede ser recogido por el jugador con un doble clic.<br /><br />Cuando el jugador hace doble clic en un objeto, se almacena en una de las ranuras disponibles en el panel de inventario. <br />Si el inventario ya está lleno, el ítem permanecerá en su lugar en la escena.<br /><br />Un objeto puede ser liberado del inventario haciendo clic en la ranura donde se encuentra, pero sólo puede ser soltado en la misma escena donde fue recogido.<br /><br />Cuando tu ítem es creado, aparece por defecto en la esquina superior izquierda de la imagen de la escena. Puedes cambiar su posición arrastrándolo con el ratón.<br />Puedes editar el objeto haciendo doble clic sobre él. Aparecerá la ventana de configuración y podrá cambiar la imagen y el nombre del objeto. También puedes activar/desactivar la vista previa del objeto en el inventario y, por supuesto, puedes eliminar el objeto.",
    "Text boxes": "Cuadros de texto",
    "chapter:app-functionalities-reference.section:text-boxes.paragraph": "Puedes añadir un cuadro de texto a una escena. Los cuadros de texto están destinados a mostrar un mensaje al jugador cuando llega a la escena. Puedes usarlo para dar información, o como herramienta narrativa.<br />El cuadro de texto puede ser cerrado por el jugador con la pequeña cruz.<br /><br />Para añadir un cuadro de texto a una escena o editar el texto actual, haz clic en el botón con un icono de diálogo en la barra de herramientas superior.<br />Cuando confirmes tu texto, aparecerá una vista previa del cuadro de texto en la vista del proyecto, sobre la imagen de la escena. Puede hacer doble clic en él para editar el texto. O puedes cerrarlo con el icono de la cruz.",
    "Scenes": "Escenas",
    "chapter:app-functionalities-reference.section:scenes.paragraph": "<strong>Crear una nueva escena</strong><br /><br />Crea una nueva escena haciendo clic en el botón con un icono \"+\" de la sección Escenas de la barra de herramientas de la izquierda.<br /><br /><strong>Editar una escena</strong><br /><br />Para editar cualquiera de las escenas de tu proyecto de juego, utiliza el menú desplegable \"Editar una escena\" de la sección Escenas de la barra de herramientas de la izquierda. <br /><br /><strong>Borrar una escena</strong><br /><br />Puedes borrar la escena que estás editando haciendo clic en el botón con un icono de borrado en la barra de herramientas superior. <br /><br /><br /><strong>Configuración de la escena</strong><br />El botón de configuración de la escena (el primero de la barra de herramientas superior) te permite establecer el tipo de escena.<br />Puedes elegir entre Jugable y Cinemática.<br />Una escena jugable es el modo por defecto. Se llama jugable porque el jugador puede \"hacer\" acciones como pulsar sobre las opciones y recoger objetos.<br />Una escena cinemática es sólo una imagen o animación para que el jugador la vea durante un rato. <br /><ul><br /><li><b><green>Duración de la cinemática</green></b>: cuánto tiempo (en segundos) debe durar la cinemática.</li><br /><li><b><green>Acción final de cinemática</green></b>: qué acción se realizará al final de la cinemática. Puedes elegir dirigir el jugador a una escena siguiente, o terminar el programa.</li><br /></ul>.",
    "General customization": "Personalización general",
    "chapter:app-functionalities-reference.section:general-customization.paragraph": "En la sección \"Configuración\" de la barra lateral, el primer botón te permite aju tar la apariencia general de tu tablero de juego.<br /><ul> <li><b><green>Color de fondo</green></b> : El color del e pacio vacío alrededor de la vi ta del juego. </li> <li><b> <green>Proporcione de la imagen</green> </b> : La proporcione del rectángulo que contiene la imagen de cada e cena. 1:1 e un cuadrado, 16:9 e como una televi ión panorámica, 4:3 e como una pantalla de televi ión antigua...</li></ul>",
    "Choices panel customization": "Personalización del panel de elecciones",
    "chapter:app-functionalities-reference.section:choices-panel-customization.paragraph": "Las opciones son los cuadros de texto en los que se puede hacer clic debajo de la imagen de la escena.<br />Haz clic en el tercer botón de la sección \"Configuración\" de la barra lateral. Deberías ver aparecer un conjunto de ajustes. Los cambios que hagas aquí se aplicarán a todo el juego.<br /><ul><li><b>Texto</b> : El primer bloque de ajustes \"Texto\" te permite elegir una fuente, ajustar el texto, el tamaño, la alineación, etc.</li><li><b>Panel</b> : El segundo bloque gestiona el panel que contiene las elecciones. Puede ajustar el color de fondo y el margen interior. El margen interior es la cantidad de espacio alrededor de las elecciones.</li><li><b>Elecciones</b>: El tercer bloque gestiona las áreas clicables que llamamos elecciones.<ul><li><b>Margen interior</b>: La cantidad de espacio alrededor del texto dentro de un área clicable. </li><li><b>Fondo de la elección sobre la que se pasa el ratón</b>: cuando se pasa el ratón sobre una elección, se puede hacer que su fondo cambie de una manera determinada:<ul><li><green>Aclarar</green>: el fondo aparecerá en un color más claro que el fondo del panel. </li><li><green>Oscurecer</green>: el fondo será más oscuro que el fondo del panel. </li><li><green>Sin efecto</green>: el fondo no cambiará. </li></ul><li><b>Esquinas redondeadas de la elección hover</b>: permite ajustar el redondeo de las esquinas del fondo que aparece al pasar el ratón por encima de una elección.</li><li><b>Anchura del borde de la elección hover</b>: establece el ancho del borde que aparece alrededor de una elección al pasar el ratón por encima.</li></li></ul>.",
    "Inventory panel customization": "Personalización del inventario",
    "chapter:app-functionalities-reference.section:inventory-panel-customization.paragraph": "El panel de inventario es el área a la derecha de la imagen del escenario. Contiene una cuadrícula de ranuras en las que el jugador puede guardar objetos. Haga clic en el último botón de la sección \"Configuración\" de la barra lateral.<br /> Los ajustes que se muestran le permiten personalizar el panel en sí, y las ranuras dentro de él.<br /> Los cambios realizados aquí se aplicarán a todo el juego.<br /><ul><li><b>Panel</b><ul><li><green>Columnas</green> : Establece el tamaño horizontal de la cuadrícula. </li><li><green>Líneas</green> : Tamaño vertical de la cuadrícula. </li><li><green>Color de fondo</green> : El color de fondo del panel. </li></ul></li><li><b>Ranuras</b><ul><li><green>Espacio</green> : Cuánto espacio hay entre cada cuadrado. </li><li><green>Esquinas redondeadas</green> : Cómo se redondearán las esquinas de cada ranura. Ten en cuenta que debe tener un ancho de borde mayor que cero para ver el redondeo de las esquinas. Si llevas el valor al máximo, las casillas deberían convertirse en círculos. </li><li><green>Anchura de borde</green> : El grosor del borde de las casillas. </li></ul></li></ul>",
    "Text boxes customization": "Personalización de los cuadros de texto",
    "chapter:app-functionalities-reference.section:text-boxes-customization.paragraph": "Para cada escena de tu juego, tienes la opción de mostrar un mensaje al jugador en un cuadro de texto. El cuadro de texto se muestra sobre la imagen cuando el jugador llega a la escena.<br />Puedes personalizar el aspecto de los cuadros de texto de tu juego haciendo clic en el segundo botón de la sección \"Configuración\" de la barra lateral. <br /><br />El primer bloque de ajustes <b>Texto</b> permite personalizar el texto en sí, elegir una fuente, hacer el texto más grueso o más fino, cambiar la alineación, etc.<br /><br />El segundo bloque <b>Cuadro</b> es para el cuadro que contiene el texto. Puedes elegir un color de fondo, hacer las esquinas más redondeadas y ajustar el ancho del borde.<br /><br /><br />Ten en cuenta que estos ajustes se aplicarán a todos los cuadros de texto de tu juego.",
    "The drawing tool": "La herramienta de dibujo",
    "chapter:drawing-tool.paragraph": "Al crear un juego con Mentalo, hay dos situaciones en las que necesitas configurar imágenes: imágenes de la escena, e imágenes de los objetos.<br />Por supuesto, puedes crear tus imágenes con cualquier editor de imágenes que te guste, GIMP o Piskel por ejemplo, si te gusta ser preciso con tus ilustraciones, esta podría ser la mejor solución.<br />Pero también puedes utilizar la herramienta de dibujo incorporada que ofrece Mentalo. <br /><br />Se abrirá por sí sola cuando hagas clic en la opción \"Crear imagen\" , o \"Editar imagen\" .<br /><br />Usar la herramienta de dibujo de Mentalo te limitará en muchos aspectos, ya que es una herramienta bastante minimalista, pero también puede ofrecer algunas ventajas:<br /><ul><li>Te permite crear fácilmente animaciones sencillas. </li><li>Puede importar una imagen existente y modificarla, o convertirla en una animación.</li><li>Puede ahorrarte algo de tiempo manipulando archivos de imagen en varias aplicaciones.</li></ul><br />Lee este capítulo para aprender a utilizar las distintas funciones de la herramienta de dibujo de Mentalo.",
    "The drawing tools": "Las herramientas de dibujo",
    "chapter:drawing-tool.section:drawing-tools.paragraph": "Las distintas herramientas de dibujo disponibles se pueden seleccionar desde la fila de 4 botones de la barra lateral.<br /><br /><strong>Elegir un color</strong><br />Para elegir el color con el que quieres dibujar, haz clic dentro del rectángulo negro de la parte superior de la barra lateral. Aparecerá un selector de color estándar, elije un color, cierra el selector, el nuevo color será seleccionado para el lápiz y el bote de pintura.<br /><br /><strong>Tamaño del lápiz</strong><br />Ajusta el tamaño del lápiz utilizando el deslizador. Esta configuración también se aplica al borrador.<br /><br /><strong>Lápiz</strong><br />Esta es la herramienta de dibujo seleccionada por defecto. No es una sorpresa, es un lápiz. Haz clic en la imagen, mantén pulsado el botón del ratón y arrastra el puntero para dibujar.<br /><br /><strong>Borrador</strong><br />El borrador funciona de la misma manera que el lápiz, salvo que el color de relleno será el del fondo base (blanco o transparente según estés en modo escena o modo objeto).<br /><br /><strong>Bote de pintura</strong><br />Esta herramienta te permite rellenar de color una forma cerrada. Dibuja una forma cerrada con el lápiz, luego selecciona el bote de pintura y haz clic dentro de la forma que quieres rellenar.<br /><br /><strong>Pipeta</strong><br />La pipeta te permitirá recuperar un color que ya hayas utilizado en tu imagen. Seleccione la pipeta, haz clic en un píxel. El color de ese píxel será ahora seleccionado y utilizado por el lápiz y el bote de pintura.",
    "Mode scene or object": "Modo escena u objeto",
    "chapter:drawing-tool.section:mode-scene-or-object.paragraph": "Dependiendo de si has abierto la herramienta de dibujo desde una ventana emergente de imagen de escena o desde una ventana emergente de objeto, estarás en el modo de escena o en el modo de objeto.<br /><br /><strong>Modo de escena</strong><br />En el modo de escena, la forma de la imagen coincidirá exactamente con la proporción de imagen elegida en la configuración general de tu juego.<br />El color de fondo por defecto será el blanco, y el borrador utilizará el blanco. <br />La anchura máxima de la imagen será de 300 píxeles.<br />El modo de animación estará disponible.<br /><br /><strong>Modo objeto</strong><br />En el modo objeto, la imagen estará contenida dentro de un lienzo cuadrado.<br />El color de fondo por defecto y el color del borrador serán transparentes.<br />La anchura máxima de la imagen será de 80 píxeles.<br />El modo de animación no estará disponible.",
    "Image resolution": "Resolución de la imagen",
    "chapter:drawing-tool.section:image-resolution.paragraph": "El parámetro \"Resolución de la imagen\" situado en la barra de herramientas le permite modificar la densidad de píxeles de su imagen.<br /><br />Para una imagen en modo escena, el valor máximo es de 300 píxeles de ancho (la altura depende de la proporción del rectángulo que contiene la imagen de la escena).<br /><br />Para una imagen en modo objeto, el máximo es de 80 píxeles.<br /><br />Cambiar la resolución de la imagen de una escena hará que esté más o menos pixelada (más píxeles = menos pixelada). <br /><br />En el modo objeto es lo mismo, pero también tendrá una consecuencia con respecto al tamaño del objeto en la imagen de la escena: <br />Si tu imagen de objeto tiene más píxeles, debería aparecer más grande en la imagen de la escena, y más pequeña con menos píxeles.<br /><br />Esto significa que puedes gestionar la relación de tamaño entre una imagen de la escena y las imágenes de los objetos en ella utilizando este parámetro.",
    "Clear the image": "Borrar la imagen",
    "chapter:drawing-tool.section:clear-image.paragraph": "El botón con el icono de una hoja blanca en la barra de herramientas borrará toda la imagen.<br />En el modo de escena, la imagen se llenará de blanco. En el modo de objeto, se rellenará con transparencia.<br /><br />En el modo de animación, también puedes usar este botón para borrar uno de los fotogramas (sin suprimirlo).",
    "Keyboard shortcuts": "Atajos de teclado",
    "chapter:drawing-tool.section:keyboard-shortcuts.paragraph": "Algunas combinaciones de teclas serán útiles en el applet de dibujo de Mentalo:<br /><br /><ul><li><b><green>Cancelar</green></b>: <b>Control + Z</b><br /><em>Pulsa la tecla \"Control\" y la tecla \"z\" al mismo tiempo para deshacer la última acción que hayas realizado (una acción de lápiz, una acción de borrador, un cubo de pintura, un cambio de resolución de la imagen, etc)</em><br /></li><li><b><green>Pipeta</green></b>: <b>Mayúsculas</b><br /><em>Si tienes seleccionado el lápiz o el bote de pintura, al pulsar la tecla de mayúsculas seleccionarás la pipeta. Al soltar la tecla volverá a su herramienta normal. Así, por ejemplo, si tienes el lápiz seleccionado, tu color seleccionado es el negro, y quieres obtener un color verde que hayas usado antes: pulsa la tecla Shift, y mientras mantienes la tecla Shift, haz clic en un píxel con el verde que quieras, y luego suelta la tecla. Ahora puedes dibujar con tu lápiz verde.</em></li><li><b><green>Copiar</green></b> : <b>Control + C</b><br /><em>Pulsa la tecla \"Control\" y la tecla \"c\" a la vez para hacer una copia del fotograma editado en el portapapeles.</em></li><li><b><green>Pegar</green></b> : <b>Control + V</b><br /><em>Pulsa la tecla \"Control\" y la tecla \"v\" a la vez para sustituir el fotograma editado por el contenido del portapapeles.</em></li></ul>.",
    "Animation mode": "Modo animación",
    "chapter:drawing-tool.section:animation-mode.paragraph": "Cuando creas una imagen de escena, el modo de animación está disponible.<br /><br />Habilítalo con la casilla de control de la barra de herramientas.<br /><br />Si el modo de animación está activo, aparecerá un nuevo panel en la parte inferior del tablero.<br />Te permitirá crear nuevos fotogramas para tu imagen. <br />Los fotogramas se irán reproduciendo sucesivamente al ritmo que tú quieras.<br /><br /><hr /><br />Si no estás familiarizado con la realización de animaciones, puede que algunos conceptos o palabras te confundan un poco. <br />Para que no te pierdas nada y hablemos el mismo idioma, aquí tienes una pequeña introducción.<br />También puedes leer <a href='https://en.wikipedia.org/wiki/Animation' target='_blank'>la página de Wikipedia sobre animación</a>. <br />En cualquier caso, no te preocupes, todo es muy sencillo.<br /><br /><strong>Una animación se hace con fotogramas</strong><br />Una animación es una secuencia de imágenes reproducidas con relativa rapidez una tras otra para dar la ilusión de movimiento.<br />Cada una de estas imágenes se llama fotograma.<br /><br /><hr /><br />En el applet de dibujo de Mentalo, cuando activas el modo de animación, las herramientas de manipulación de fotogramas aparecen en la parte inferior del tablero.<br /><ul><li>El primer botón, es un botón de reproducción, para previsualizar el renderizado de tu animación.</li><li>Los siguientes 3 botones te permiten añadir o eliminar fotogramas. </li><li>Los 3 botones siguientes son útiles si quieres ver los fotogramas vecinos por transparencia (esto se llama \"cáscaras de cebolla\").</li><li>Y, por último, el control deslizante de la derecha de la fila ajusta la velocidad de la animación.</li><li>Los fotogramas de tu animación están representados debajo de la fila de botones por pequeños rectángulos con números. Puede hacer clic en un rectángulo para seleccionar el fotograma que desea cambiar.</li></ul>.",
    "Handle animation frames": "Gestión de los fotogramas de la animación",
    "chapter:drawing-tool.section:handle-animation-frames.paragraph": "<strong>Añadir nuevo fotograma</strong><br />Cuando añadas un fotograma, el nuevo fotograma se insertará en la posición contigua al fotograma actualmente seleccionado. Así, por ejemplo, si tu animación tiene 6 fotogramas, y tienes seleccionado el fotograma 4, si haces clic en Añadir Nuevo Fotograma, el fotograma se insertará en la posición 5 (por lo que los fotogramas actuales 5 y 6 se desplazarán a 6 y 7). <br />Hay 2 formas de añadir un nuevo fotograma a tu animación:<br /><ul><li>Añadir un nuevo fotograma vacío</verde></b>: Haz clic en el segundo botón de la barra de herramientas de animación (con una hoja blanca y un +), se insertará un fotograma vacío a la derecha del fotograma actualmente seleccionado. Ahora puedes dibujar en tu nuevo cuadro. Cuando haya terminado, añade uno nuevo. </li><li><b><verde>Copiar el fotograma actual a un nuevo fotograma</verde></b>: Haz clic en el tercer botón de la barra de herramientas de animación (con 2 hojas y un +), se insertará un fotograma idéntico al actualmente seleccionado. Esto es útil cuando su animación no se mueve mucho. Por ejemplo, si has dibujado todo un escenario y sólo hay una pequeña cosa que se mueve en él, no querrás volver a dibujar el escenario cada vez. Así, cuando hayas insertado una copia de tu fotograma anterior, podrás cambiar las cositas que quieras en el nuevo, y así sucesivamente.</li></ul><br /><br /><strong>Eliminar un fotograma</strong><br />Si quieres borrar un fotograma de tu animación, selecciona el fotograma que quieres eliminar, y haz clic en el 4º botón de la barra de herramientas de la animación (con un icono de borrado). Si había fotogramas a la derecha del que ha eliminado, se desplazarán un paso a la izquierda (por lo que no habrá ningún \"agujero\" en la posición del fotograma eliminado).",
    "Onion skins": "Cáscaras de cebolla",
    "chapter:drawing-tool.section:onion-skins.paragraph": "¡No, no se trata de cocinar :)! Lo que llamamos cáscaras de cebolla en animación es cuando se proyecta una vista semitransparente (como lo sería una cáscara de cebolla real) de un fotograma vecino sobre tu fotograma actualmente seleccionado.<br />Esto te permite ver lo que se dibujó en el anterior (o en el siguiente, o en ambos) mientras dibujas un nuevo fotograma. <br /><br />Veamos un ejemplo (ver las imágenes de al lado):<br />Quieres que la imagen de tu escena sea una pequeña casa junto a una autopista con un fino chorro de humo saliendo de la chimenea.<br />Tu escenario (la casa y la autopista) no se moverá, por lo que no es necesario tocarlo. Pero quieres que el humo esté un poco animado.<br />Así que, vamos a empezar en el primer fotograma con el escenario: la casa y la autopista.<br /><br />Entonces, vamos a hacer 3 copias de este fotograma, para que tengamos 4 fotogramas en total (suponiendo que 4 fotogramas son suficientes para nuestra animación). Hasta ahora, los 4 fotogramas son idénticos.<br /><br />Ahora, seleccionaremos el primer fotograma, y dibujaremos el chorro de humo en él.<br /><br />Cuando eso esté hecho, seleccionaremos el segundo fotograma y dibujaremos un scroll de humo similar pero ligeramente diferente al primero.<br />Aquí es donde entran las cáscaras de cebolla. En este punto sería bueno mantener una vista del humo del primer fotograma mientras dibujamos el siguiente. <br />Los botones que manejan las cáscaras de cebolla en la barra de herramientas de animación es el último grupo de botones con iconos de hojas y ojos en ellos. Haremos clic en el primero para mostrar el fotograma anterior al que estamos dibujando.<br />Deberías ver que el humo del primer fotograma aparece muy ligeramente. Ahora puedes basarte en esto para dibujar otro humo.<br /><br />Repite hasta llegar al último fotograma, y prueba a pulsar el botón de reproducción (el primero) para ver cómo se mueven tus fotogramas!<br /><br />Por supuesto, en otras situaciones puede que necesites ver el siguiente fotograma en lugar del anterior. El último botón permite ver los fotogramas siguientes y los anteriores.",
    "Play the animation": "Reproducir la animación",
    "chapter:drawing-tool.section:play-animation.paragraph": "Al hacer clic en el primer botón de la barra de herramientas de animación -con un triángulo verde- se reproducirá tu secuencia de fotogramas.<br /><br />Mientras se reproduce tu animación, los botones para añadir/quitar fotogramas y los botones de cáscaras de cebollas están ocultos.<br /><br />Aún puedes ajustar la velocidad de la animación con el control deslizante.<br /><br />Detén la animación haciendo clic en el botón cuadrado rojo.",
    "Files": "Archivos",
    "chapter:drawing-tool.section:files.paragraph": "El applet de dibujo sólo puede ser abierto por la aplicación Mentalo, cuando se establece una imagen de escena, o una imagen de objeto.<br />Debido a que esto llevaría a muchos errores lógicos y bugs, es imposible importar un archivo de imagen directamente en el applet de dibujo. <p>Si quieres utilizar la herramienta de dibujo a partir de una imagen existente, debes importar tu imagen a Mentalo (a través de la ventana emergente de configuración de la imagen de la escena, o de la ventana emergente de configuración del objeto), y utilizar el botón \"editar imagen\". <br /><br />Sin embargo, si empiezas a trabajar en una imagen con la herramienta de dibujo y quieres guardar tu trabajo en curso, e importarlo más tarde, puedes exportar un archivo específico .mtli (para Mentalo Image). El archivo mtli contiene los datos de la imagen en sí, pero también todos los datos útiles sobre si su imagen es para una escena o un objeto, cuántos fotogramas tiene, la velocidad de la animación, etc.<br /><br /><strong>Exportar</strong><br />Los botones de importación/exportación se encuentran en la parte superior derecha de su pantalla.<br />Haz clic en el primer botón, con una flecha hacia fuera. Se te pedirá que aceptes la descarga de un archivo <b><green>export-mentalo-animation.mtli</green></b>. Descarga el archivo y guárdalo donde quieras. También puedes cambiar el nombre a tu gusto. Lo único importante es la extensión <b><green>.mtli</green></b>, no podrías reimportar el archivo sin ella.<br /><br /><strong>Importación</strong><br />Pulsa el botón con una flecha de entrada en la parte superior derecha de la pantalla, y busca el <green>. mtli</green> que quieras recuperar.<br /><br />Nota que si tienes la herramienta de dibujo abierta en modo escena, no podrás importar una imagen en modo objeto, y viceversa.",
    "Exit the drawing tool": "Salir de la herramienta de dibujo",
    "chapter:drawing-tool.section:exit-drawing-tool.paragraph": "Cuando hayas terminado de dibujar tu imagen o animación, tienes dos opciones para salir de la herramienta de dibujo:<br /><ul><li><b>Volver con esta imagen</verde></b>: Estás contento con la imagen que has creado y quieres volver al editor del juego con ella.<br />Haz clic en el botón de la parte superior izquierda de la pantalla con una flecha y una marca de verificación. Serás redirigido de nuevo a la aplicación y tu imagen se utilizará para la escena u objeto que querías configurar.<br /><br /></li><li><b><green>Cancelar y volver</green></b> Serás redirigido de nuevo a la aplicación, tu dibujo se perderá y la operación de configuración de imagen en la que estabas se cancelará.</li></ul>.",
    "Play, publish, update and delete games": "Jugar, publicar, actualizar y eliminar juegos",
    "chapter:crud-games.paragraph": "<p>Para explorar y jugar a las creaciones publicadas por otros usuarios, para publicar tu juego o actualizarlo <br>¡Ve a la página <strong><a href='/juegos/' target='_blank'>Juegos</a></strong>! <hr></p><h2>Explora</h2><p>Ordena los juegos por fecha, título o autor y busca juegos por título con la barra de búsqueda. <br />Los botones de la vista previa de un juego permiten jugarlo, descargarlo o abrirlo en el editor de proyectos. </p><h2>Publicar, actualizar o eliminar un juego</h2><p>Pulsa el botón <b><green>Publicar</green></b> de la parte superior derecha, selecciona la pestaña que corresponde a lo que quieres hacer y sigue los pasos </p><hr><p><strong><red>/!\\ Atención</red></strong><br />El tamaño máximo del archivo del juego que puedes publicar es de 32MB.<br /><br /><strong>¿Por qué este límite?</strong><br />La distribución de grandes archivos en línea consume muchos recursos. La razón para establecer un límite es salvarlos.<br />Con 32MB ya puedes hacer mucho, pero si tu archivo es demasiado grande puedes probar las siguientes cosas para optimizar su tamaño:<br /><ul><li>Acortar las pistas de sonido (con Audacity, por ejemplo)</li><li>Utilizar un formato comprimido para las pistas (por ejemplo, mp3) y reduce la calidad del sonido.</li><li>Reducir el tamaño de las imágenes a un máximo de 300 píxeles de ancho.</li><li>Crear tus imágenes utilizando una paleta de colores indexada (ver en <a href='https://docs.gimp.org/es/gimp-image-convert-indexed.html' target='_blank'>GIMP</a>)</li></ul></p>"
}