{
    "Preferences": "Préférences",
    "beta-in-progress.paragraph": "Cette version de l'application Mentalo est une publication Beta et vous pourriez rencontrer des dysfonctionnements.<br /><br />Si vous trouvez un bug ou une fonctionnalité insatisfaisante, veuillez le signaler en envoyant un email au responsable de l'app sur <a href='mailto:contact@kuadrado-software.fr'>contact@kuadrado-software.fr</a>",
    "mentalo-dev.paragraph": "Mentalo est un ensemble de modules applicatifs libres et open-source et les contributeurs sont entièrements bienvenus.<br /><br />Si vous souhaitez contribuer au développement du projet, vous êtes invités à intéragir et proposer des merge requests sur les différents dépôts",
    "Language": "Langue",
    "Application language": "Langue de l'application",
    "Documentation": "Documentation",
    "Previous page": "Page précédente",
    "Next page": "Page suivante",
    "Introduction": "Introduction",
    "here": "ici",
    "chapter:intro.paragraph": "Bienvenue dans le livre de documentation de l'application <b><green>Mentalo</green></b> !<br /><br />Vous devriez trouver ici toutes les explications dont vous avez besoin pour utiliser l'application.<br /><br />Vous avez encore une question ? Une suggestion ?<br />Vous pouvez contacter le mainteneur de l'application :<br /><a href=\"mailto:contact@kuadrado-software.fr\">contact@kuadrado-software.fr</a>",
    "What is Mentalo?": "Mentalo, qu'est-ce que c'est ?",
    "chapter:intro.section:what-is-mentalo.paragraph": "<b><green>Mentalo</green></b> est une application web créative qui vous permet de construire des jeux simples basés sur des écrans fixes et des choix sous forme de texte cliquable.<br /><br />Le but premier de Mentalo est éducatif. L'idée est de mener l'utilisateur de l'application à développer un raisonnement logique à travers la création d'un jeu vidéo très simple.<br />Les compétences intellectuelles développées avec cette pratique peuvent être un bon premier pas pour l'apprentissage de la programmation pour les plus jeunes.<br />Cependant Mentalo n'est pas un équivalent de <a href='https://fr.scratch-wiki.info/wiki/Scratch_3.0' target='_blank'>Scratch</a> car elle garde les concepts d'algorithmies totalement abstraits et se concentre sur le fait d'être capable de construire mentalement un chemin logique.<br /><br />Mentalo peut être un très bon exercice pour tout public, pas seulement les plus jeunes. En outre, elle peut simplement être vue comme un outil créatif plutôt qu'un exercice.<br /><br />Mentalo est un <a href='https://en.wikipedia.org/wiki/Free_and_open-source_software' target='_blank'>logiciel libre et open source</a> publié sous une license GNU GPL-3.0.<br />Le projet est créé et maintenu par <a href='https://kuadrado-software.fr' target='_blank'>Kuadrado Software</a>.<br />",
    "Kuadrado Software": "Kuadrado Software",
    "chapter:intro.section:kuadrado-software.paragraph": "<a href='https://kuadrado-software.fr' target='_blank'>Kuadrado Software</a> est un studio de jeu vidéo indépendant français et fabricant de logiciels créé par Pierre Jarriges en 2021.<br /><br />\"Après quelques mois passé à tenter d'enseigner la programmation à des adolescents, j'ai réalisé qu'il me manquait des outils pédagogiques pour aider les plus jeunes à développer leur capacité à avoir une raisonnement logique avant de les plonger dans le code.<br /><br />Je me suis alors rappelé de ces vieux jeux vidéos qui se voyaient dans les premiers âges du jeu vidéo, avec simplement des images fixes et la possibilité de faire des choix en tapant du texte ou en cliquant sur quelque chose (voir <a href='https://www.squakenet.com/game/qin/' target='_blank'>Qin</a> par exemple), et j'ai décidé de créer une appli qui pourrait permettre de construire ce genre de jeu sans que l'utilisateur ait besoin d'écrire de code.<br /><br />Voilà comment j'ai commencé à programmer <b><green>Mentalo</green></b> !\"",
    "Mentalo games": "Jeux Mentalo",
    "chapter:mentalo-games.paragraph": "Le genre de jeu qui peuvent être construits avec Mentalo est inspiré par certains de ces anciens jeux vidéo d'aventure apparus dans les années 80, avec des scènes chacune composée d'une simple illustration fixe, une interface minimaliste, et la possibilité de faire des choix en tapant du texte ou en cliquant sur un bouton.<br /><br />Malgré les ressources limitées qu'ils avaient à leur disposition, ces jeux pouvaient permettre à un joueur de vivre une aventure profonde et stimulante.<br /><br />Captures d'écran :<ul><li>En haut à gauche: Qin - 1988 - ERE Informatique</li><li>En haut à droite: Zak McKracken and the Aliens Mindbenders - 1988 - Lucasfilm Games</li><li>En bas à gauche: Zombi - 1986 - Ubi Soft</li><li>En bas à droite: King's Quest - 1984 - Sierra On-Line</li></ul>",
    "How to play": "Comment jouer",
    "chapter:mentalo-games.section:how-to-play.paragraph": "<ul><li><b><green>Actions : </green></b>Choisissez l'action à faire en cliquant sur un des choix proposé sur le panneau en dessous de l'image de la scène.</li><li><b><green>Ramasser des objets : </green></b>Une scène peut contenir des objets qui peuvent être ramassés en double-cliquat dessus.</li><li><b><green>Inventaire : </green></b>Les objets collectés sont stockés dans le panneau d'inventaire, à droite de l'image de la scène.</li><li><b><green>Jeter des objets : </green></b>Un objet peut être retiré de l'inventaire si vous êtes dans la scène où il a été ramassé. Jetez l'objet simplement en cliquant dessus dans l'inventaire.</li><li><b><green>Boîtes de texte : </green></b>Certaines scènes vous accueilleront avec un message dans une boîte par dessus l'image. Vous pouvez le fermer en cliquant sur la croix en haut à droite de la boîte de texte.</li><li><b><green>Objets requis : </green></b>Certains choix exigent que vous ayez certains objets dans votre inventaire. Si vous n'avez pas les objets, l'action ne sera pas effectuée, un message apparaîtra dans une popup et devrait vous donner un indice sur ce qui manque. Fermez la popup en cliquant sur la croix.</li><li><b><green>Cinematiques : </green></b>Certaines scènes sont des cinématiques. Dans ces cas là vous n'avez pas accès aux choix ni à l'inventaire. Vous avez juste à attendre la fin de la cinnématique. Le passage à la scène suivante (ou éventuellement à la fin du programme) se fera automatiquement.</li><li><b><green>Quitter le jeu : </green></b>Si vous voulez quitter le jeu avant sa fin naturelle, vous pouvez le faire simplement en pressant la touche Echap. (Il se peut que vous deviez appuyer 2 fois si le mode plein écran est activé)</li></ul><br /><br /><b>Erreurs : </b><br /><em>Parfois, par exemple si un jeu est en cours de construction ou si le créateur s'est trompé, un message d'erreur peut apparaître dans une popup ou l'écran peut rester noir. Dans ces cas là, pressez simplement Echap et quittez le jeu.</em><br /><ul><li><b><red>La scène de destination n'a pas encore été définie : </red></b>Cela veut dire que le choix n'a pas été entièrement configuré et le programme ne sait pas vers quelle scène il doit vous diriger.</li><li><b><red>Écran noir : </red></b> Si l'écran reste noir, en général cela veut dire que le point d'entrée du jeu n'a pas d'image définie et le jeu ne peut pas démarrer.</li></ul><br /><br />Voilà tout ce qu'il faut savoir sur comment jouer à un jeu Mentalo. Amusez-vous bien !",
    "Structure of a game made with Mentalo": "Structure d'un jeu fait avec Mentalo",
    "chapter:mentalo-games.section:structure-of-a-game-made-with-mentalo.paragraph": "En gros, un jeu Mentalo est un ensemble de scènes affichées une par une sur une interface minimaliste selon les choix faits par le joueur.<br /><br />L'interface principale est composée de l'image de la scène, à droite de l'image il y a un panneau d'inventaire dans lequel le joueur peut stocker des objets, et en bas il y a un panneau affichant les choix cliquables.<br />Chaque scène a une image, elle peut avoir une piste de son, des objets peuvent être placés dessus et collecté par le joueur dans l'inventaire, elle peut afficher un message dans une boîte de texte, en enfin elle peut proposer au joueur jusqu'à 4 choix texte cliquables.<br /><br />Une scène peut soit être jouable soit cinématique.<br />Si une scène est une cinématique, elle n'affiche pas de choix et n'a pas d'objets. Elle ne peut avoir qu'une image ou une animation, une piste de son, une durée, et elle peut mener automatiquement soit à une scène suivante soit à la fin du jeu.<br /><br />Les choix cliquables sont définis par le créateur du jeu. Ils affichent un texte court et sont configurés pour mener soit dans une autre scène soit à la fin du jeu.<br />Ils peuvent aussi exiger que le joueur ait certains objets dans son inventaire et définissent un message à afficher si le joueur n'a pas les objets.<br /><br /><pre>Jeu\n    |_Métadonnées interface: couleurs, polices, proportions, etc...\n    |_Métadonnées jeu: \n    |   |_Titre\n    |\n    |_Scènes\n    |   - Une scène\n    |       |_Titre\n    |       |_Image / animation\n    |       |_mode: cinematique ou jouable\n    |       |_Piste de son\n    |       |_objets\n    |       |   - Un objet\n    |       |       |_ image\n    |       |       |_ position\n    |       |   - Un autre objet\n    |       |   - ...\n    |       |_ Choix\n    |       |   - Un choix\n    |       |       |_ Texte cliquable affiché\n    |       |       |_ Scène suivante (ou fin du programme)\n    |       |       |_ conditions (objets requis, message si manquant, etc)\n    |       |   - Un autre choix\n    |       |   - ...\n    |       |\n    |       (Si scène cinématique)\n    |       |_Action automatique de fin de cinématique\n    |           |_ Durée\n    |           |_ Scène suivante ou fin du programme\n    |   - Une autre scène\n    |   - ...\n    |\n    |_Inventaire: Les objets ramassés par le joueur au fil du jeu.</pre>",
    "Building a game step by step": "Construire un jeu pas à pas",
    "chapter:building-a-game-step-by-step.paragraph": "Ce guide pas à pas vous conduira à travers tous les outils de l'application en suivant le chemin naturel pour construire un jeu.<br /><br />C'est un bon moyen de débuter avec l'application.",
    "The game logic": "La logique du jeu",
    "chapter:building-a-game-step-by-step.section:game-logic.paragraph": "Avant de commencer à créer chaque scène, image, objet, etc., vous devez avoir un aperçu de la logique de votre jeu.<br /><br />Pour ce tutoriel nous allons suivre la construction d'un jeu nommé \"Home Sweet Home\". <br />Le jeu entier peut être trouvé <a href='/games/?query=home-sweet-home' target='_blank'>ici</a>.<br />\"Home Sweet Home\" est un jeu très court et simple mais la logique que vous utiliseriez pour construire un jeu plus grand serait à peu près la même.<br /><br />Pour imaginer mentalement notre jeu, nous allons faire un graphique pour décrire chacun de ses éléments essentiels :<br /><ul><li>L'intrigue</li><li>La liste des scènes jouables</li><li>Cinématiques</li><li>Les objets de chaque scène</li><li>Les messages dans les zones de texte</li><li>Les choix possibles</li ><li>La taille de l'inventaire</li><li>etc.</li></ul><br />Cela nous aidera à avoir une idée claire de la façon dont les scènes seront liées entre elles par les choix , quels objets seront nécessaires, quels seront les défis pour le joueur, etc.<br /><pre><b><green>Projet de jeu</green></b>:\n    |_<b><green>Titre</green></b>: Home sweet home\n    |\n    |_<b><green>Intrigue</green></b>: Vous vivez dans un chalet dans les bois, mais vous avez perdu votre clé et vous ne pouvez pas entrer. \n    |    Vous l'avez peut-être perdue dans la forêt. Trouvez votre clé et rentrez chez vous. \n    |    Attention de ne pas vous perdre dans les bois !\n    |\n    |_<b><green>Interface</green></b>:\n    |    |_<b><green>Taille de l'inventaire</green></b>: 3 lignes, 1 colonne\n    |    |_<b><green>Choix par scène</green></b>: 2\n    |\n    |_<b><green>Scènes</green></b>:\n        |_Chalet extérieur\n        |    |_<b><green>Description</green></b>: Un joli chalet en bois dans une clairière. Vue de face.\n        |    |_<b><green>Message boîte de texte</green></b>: Home sweet home !\n        |    |_<b><green>Choix</green></b>:\n        |        |_Entrer dans le chalet\n        |        |    |_<b><green>Destination</green></b>: Cinématique intérieur chalet\n        |        |    |_<b><green>Objet requis</green></b>: Clé\n        |        |    |_<b><green>Message si objet manquant</green></b>: Vous ne pouvez pas entrer sans votre clé, \n        |        |        et il semble que vous l'ayez perdue ...\n        |        |_Aller marcher dans la forêt\n        |            |_<b><green>Destination</green></b>: Forêt 1\n        |_ Forêt 1\n        |    |_<b><green>Description</green></b>: Dans la forêt, arbres et mousse...\n        |    |_<b><green>Choix</green></b>:\n        |        |_Continuer à marcher dans la forêt\n        |        |    |_<b><green>Destination</green></b>:  Forêt 2\n        |        |_Revenir au chalet\n        |            |_<b><green>Destination</green></b>: Chalet\n        |_ Forêt 2\n        |    |_<b><green>Description</green></b>: Plus profond dans la forest, 2 sentiers se croisent\n        |    |_<b><green>Choix</green></b>:\n        |        |_Prendre le sentier de gauche\n        |        |    |_<b><green>Destination</green></b>:  Forêt 3\n        |        |_Prendre le sentier de droite\n        |            |_<b><green>Desintation</green></b>:  Forêt 1\n        |\n        |_ Forêt 3\n        |    |_<b><green>Description</green></b>: Dans la forêt, croisement de sentiers...\n        |    |_<b><green>Message boîte de texte</green></b>: Bon sang... quel chemin était-ce ?\n        |    |_<b><green>Objets</green></b>:\n        |    |    |_ Clé\n        |    |_<b><green>Choix</green></b>:\n        |        |_Prendre le sentier de gauche\n        |        |    |_<b><green>Destination</green></b>:  Forêt 4\n        |        |_Rester dans les bois pour toujours\n        |            |_<b><green>Destination</green></b>: Cinématique cabane dans la forêt\n        |\n        |_ Forêt 4\n        |    |_<b><green>Description</green></b>: Profond dans la forêt\n        |    |_<b><green>Message boîte de texte</green></b>: Suis-je perdu ?\n        |    |_<b><green>Choix</green></b>:\n        |        |_Faire demi-tour\n        |        |    |_<b><green>Destination</green></b>:  Forêt 3\n        |        |_Continuer à marcher\n        |            |_<b><green>Destination</green></b>:  Forêt 2\n        |    \n        |\n        |_Cinématique intérieur chalet\n        |    |_<b><green>Description</green></b>: Ambiance cozy dans le chalet\n        |    |_<b><green>Destination de fin de cinématique</green></b>: Fin du programme\n        |_Cinématique cabane forêt\n            |_<b><green>Description</green></b>: Une petite et fragile cabane dans les bois sous la pluie. Puis la construction\n            |    d'une meilleure cabane, jusqu'à ce qu'elle devienne un chalet semblable au premier.\n            |_<b><green>Destination de fin de cinématique</green></b>: Fin du programme</pre><br />Eh bien, voici un joli petit plan, il ne reste plus qu'à le faire devenir réalité (en quelque sorte) !<br /><br />Nous avons 5 scènes jouables dont 4 scènes de forêt qui devraient se ressembler, et les choix sont configurés de manière à ce que le joueur puisse se perdre un peu.<br /><br />Il y a deux cinématiques de fin de jeu possibles, une ou le joueurretrouve sa clé et rentre chez dans le chalet, et une autre ou il choisit de rester dans les bois... et finalement reconstruit un chalet :).<br /><br />Maintenant que nous avons une vision claire de ce que sera le jeu, mettons nous au travail !",
    "Image of the scene": "Image de la scène",
    "chapter:building-a-game-step-by-step.section:image-of-the-scene.paragraph": "Commençons la première scène !<br /><br />Quand vous créez un nouveau projet de jeu la première vue du tableau de bord que vous devriez voir est une scène vide.<br />Une scène est un ensemble de 3 espaces, 1 pour l'image, 1 pour l'inventaire et 1 pour le panneau de choix cliquables en dessous de l'image.<br /><br />Nous allons définir une image pour cette première scène.<br /><br />Cliquez sur le 2ème bouton de la barre d'outils au dessus de la vue du jeu. Une popup avec quelques paramètres s'ouvrira.<br />Vous pouvez choisir de simplement importer une image depuis votre ordinateur, ou bien en créer une avec l'outil de dessin intégré.<br /><br />L'outil de dessin est très limité donc vous préférerez peut-être utiliser votre logiciel de dessin favori pour créer l'image, ce n'est pas un problème. Cependant l'outil de dessin peut vous offrir quelques avantages pour créer facilement une petite image animée ou pour éviter d'avoir à manipuler des fichiers à travers plusieurs logiciels.<br /><br />Si vous n'utilisez pas l'outil de dessin et que vous importer une image depuis votre ordinateur, n'importe quel fichier .jpg, .png ou .bmp fonctionnera, mais vous devriez faire attention de ne pas les choisir trop gros. Idéalement, un maximum de 600 pixels de largeur devrait être respecté.<br /><br />Si vous voulez importer une image animée, les frames de l'animations doivent être réunies en une seule image ( une animation gif ne sera pas supportée. ) les unes à côté des autres, en ligne. Toutes les frames doivent faire exactement la même taille et doivent être précisément juxtaposées les unes aux autres (pas d'espace vide entre les frames).<br /><br />Dans la popup, vous pouvez spécifier le nombre de frames. S'il y a plus d'une frame, vous pouvez aussi régler la vitesse de défilement de l'animation, et configurer si vous voulez qu'elle soit jouée en boucle ou pas.<br />Lorsque vous avez terminé, vous pouvez cliquer sur le bouton à coche verte pour valider.<br /><br />Si vous choisissez d'utiliser l'outil de dessin, quand vous avez fini de dessiner votre image vous pouvez cliquer sur le bouton en haut à gauche pour revenir à l'éditeur avec l'image que vous venez de créer.<br /><br />Pour notre jeu \"Home Sweet Home\", l'image est un chalet dans les bois. Si vous le souhaitez vous pouvez télécharger l'image originale <a href='{%chalet_image_link%}' download='chalet.png'>ici</a> mais n'hésitez pas à créer la vôtre !",
    "Interface customization": "Personnalisation de l'interface",
    "chapter:building-a-game-step-by-step.section:interface-customization.paragraph": "Premièrement nous allons customiser quelques petites choses au niveau de l'apparence générale de notre interface de jeu.<br /><br />Il y a 4 boutons en bas de la barre d'outils latérale, à gauche du tableau de bord:<ul><li><b><green>Paramètres généraux</green></b></li><li><b><green>Paramètres des boîtes de texte</green></b></li><li><b><green>Paramètres du panneau de choix</green></b></li><li><b><green>Paramètres du panneau d'inventaire</green></b></li></ul>Concentrons-nous sur les paramètres généraux et inventaire pour le moment.<br /><br /><b>Paramètres généraux</b>:<ul><li><green>Couleur d'arrière plan</green>: Choisissez la couleur du fond perdu autour de l'interface de jeu.</li><li><green>Proportions de l'image</green>: Ceci règle le rapport largeur/hauteur de l'espace qui contiendra l'image de chaque scène. 1:1 est un carré, 4:3 est comme un vieil écran de TV, 16:9 est plus panoramique, etc.</li></ul>Pour notre jeu démo \"Home Sweet Home\" nous allons choisir <b><green>14:10</green></b>.<br /><br /><b>Paramètres du panneau d'inventaire</b>:<br />Ici nous gérerons l'apparence de la grille d'inventaire qui se trouve à droite de l'espace de jeu.<br /><ul><li><b>Panneau:</b><ul><li><green>Colonnes</green>: Le nombre d'emplacements dans le sens horizontal.</li><li><green>Lignes</green>: Le nombre d'emplacements dans le sens vertical.</li><li><green>Couleur d'arrière plan</green>: La couleur du panneau.</li></ul></li><li><b>Emplacements</b>: <ul><li><green>Espacement</green>: Ajuste la quantité d'espace entre chaque emplacement.</li><li><green>Coins arrondis</green>: Pour arrondir les coins des bordures des emplacements.</li><li><green>Largeur des bordures</green>: Ajuste l'épaisseur des bordures des emplacements.</li></ul></li></ul><br />Pour la démo Home Sweet Home, seul un empacement est vraiment nécessaire donc pour pouvez régler sur 3 emplacements (3 lignes et 1 colonne), ce qui est le minimum.",
    "Set the titles": "Donnez les titres",
    "chapter:building-a-game-step-by-step.section:titles.paragraph": "Nous aurions pu le faire avant ou le faire plus tard, mais c'est le bon moment pour configurer correctement le titre du jeu et le titre de la scène.<br /><br />Vous avez peut-être déjà remarqué que le titre de votre jeu est écrit en haut à gauche du tableau de bord. Par défaut, il est réglé sur \"Nouveau projet\".<br />Pour le modifier, il vous suffit de cliquer dessus. Tapez votre texte et appuyez sur entrée ↵ pour valider.<br /><br />Le titre de la scène est affiché en haut à droite du tableau de bord. Par défaut, il la scène s'appelle \"Scène 1\" (ou Scène 2 ou 3 etc. pour les scènes suivantes). Vous pouvez le modifier de la même manière que vous venez de le faire pour le titre du jeu.<br /><br />Vous pouvez modifier ces titres quand vous le souhaitez.",
    "Add a text box to the scene": "Ajouter une boîte de texte à la scène",
    "chapter:building-a-game-step-by-step.section:add-text-box-to-scene.paragraph": "La boîte de texte d'une scène vous offre la possibilité d'afficher un message au moment où le joueur entre dans cette scène.<br /><br />Pour cela, cliquez sur le bouton dans la barre d'outils supérieure, celui avec une icône de dialogue. <br />Tapez votre message dans la zone de saisie de texte de la popup.<br />Quand vous avez terminé, validez.<br />Pour la démo, nous allons taper <green>\"Home Sweet Home!\"</green>.<br /><br />Un aperçu de votre boîte de texte s'affiche à l'écran. Vous pouvez la fermer avec la petite croix.<br /><br />Le message sera affiché par dessus l'image au moment où le joueur entre dans la scène.<br /><br />Vous pouvez modifier votre texte en double cliquant sur l'aperçu de la boîte de texte, ou en cliquant sur le bouton de la barre d'outils.<br /><br />Vous pouvez aussi personnaliser un peu l'aspect des boîtes de texte dans votre jeu.<br />Pour cela, cliquez sur le bouton avec une icône de dialogue dans la barre d'outils de gauche. Un menu apparaîtra et vous pourrez définir quelques options de style :<br /><ul><li><green>Texte :</green>Choisissez la police de caractères, la taille des lettres, l'alignement, etc.</li><li><green>Boîte :</green>Stylisez la boîte elle-même, le fond, la bordure, etc.</li></ul>.",
    "Soundtrack of the scene": "Piste sonore de la scène",
    "chapter:building-a-game-step-by-step.section:soundtrack-of-the-scene.paragraph": "Vous pouvez ajouter une piste de son à votre scène, une musique ou des bruits d'ambiance par exemple.<br /><br />Cliquez sur le bouton avec l'icône notes de musique dans la barre d'outils pour ouvrir la popup de piste sonore.<br />Importez un fichier audio depuis votre ordinateur (comme .mp3, .wav, .ogg etc). <br />Si vous voulez garder votre jeu aussi léger que possible, préférez des pistes courtes et jouez-les en boucle plutôt que des pistes plus longues.<br /><br />Si vous voulez que votre piste soit jouée indéfiniment en boucle pendant la scène, cochez la case \"jouer en boucle\".<br /><br />Vous pouvez éventuellement personnaliser le titre de votre piste. Si vous ne le faites pas, le nom du fichier sera utilisé.<br /><br />La piste sonore commencera à jouer lorsque le joueur arrivera dans la scène, et s'arrêtera lorsque la scène changera.<br /><br /><strong>Télechargez les pistes original du jeu démo Home Sweet Home</strong><ul><li>Chalet: <a href='{%chalet_sound_link%}' download='chalet.mp3'>chalet.mp3</a></li><li>Forêt 1: <a href='{%forest_1_sound_link%}' download='forest1.mp3'>forest_1.mp3</a></li><li>Forêt 2: <a href='{%forest_2_sound_link%}' download='forest2.mp3'>forest_2.mp3</a></li><li>Forêt 3: <a href='{%forest_3_sound_link%}' download='forest3.mp3'>forest_3.mp3</a></li><li>Forêt 4: <a href='{%forest_4_sound_link%}' download='forest4.mp3'>forest_4.mp3</a></li><li>Cinématique intérieur chalet: <a href='{%fire_sound_link%}' download='fire.mp3'>fire.mp3</a></li><li>Cinématique pluie: <a href='{%rain_sound_link%}' download='rain.mp3'>rain.mp3</a></li><li>Cinématique construction cabane: <a href='{%brico_sound_link%}' download='brico.mp3'>brico.mp3</a></li><li>Cinématique cabane: <a href='{%cabin_sound_link%}' download='cabin.mp3'>cabin.mp3</a></li></ul>",
    "Add objects to the scene": "Ajouter des objets à la scène",
    "chapter:building-a-game-step-by-step.section:add-objects.paragraph": "Vous avez la possibilité d'ajouter des objets aux scènes de type Jouable.<br /><br />Dans notre jeu de démonstration \"Home Sweet Home\", nous allons ajouter une petite clé en métal dans la scène Forêt 3.<br /><br />Vous pouvez revenir à une scène et l'éditer en utilisant le menu déroulant \"Editer une scène\" dans la barre d'outils de gauche.<br /><br />Dans Mentalo, un objet est une image, un nom, et une position sur l'image de la scène. <br /><br />Le joueur peut collecter les objets d'une scène en double-cliquant dessus.<br />Lorsqu'un objet est collecté par le joueur, il disparaît de la scène et il s'affiche dans un emplacement du panneau d'inventaire.<br />Si à un moment du jeu le joueur a besoin de libérer un emplacement dans l'inventaire, un objet peut être remis à sa place en cliquant dessus dans son emplacement d'inventaire.<br />Un objet ne peut être libéré que dans la scène dans laquelle il a été ramassé. C'est une contrainte que vous pouvez utiliser dans votre logique de jeu pour ajouter de la difficulté.<br /><br />Pour ajouter un nouvel objet à la scène, cliquez sur le bouton avec un cône et un carré dans la barre d'outils. La popup vous permet de choisir entre télécharger une image depuis votre ordinateur ou en créer une avec l'outil de dessin.<br /><br />Lorsque vous ouvrez l'outil de dessin depuis la popup de l'objet, l'outil est ouvert en mode \"objet\" : le fond est transparent, l'image est plus petite qu'en mode scène, et le mode animation n'est pas disponible. <br /><br />Quand vous avez fini de dessiner, vous pouvez revenir en arrière avec l'image en cliquant sur le bouton en haut à gauche avec une coche.<br /><br />L'image de l'objet apparaît dans le coin supérieur gauche de l'image de la scène. Vous pouvez la faire glisser à la position que vous souhaitez.<br /><br />Si vous double-cliquez sur votre objet, vous pouvez l'éditer : modifier son nom et son image.<br /><br />Vous pouvez télécharger l'image originale de la clé <a href='{%key_image_link%}' download='key.png'>ici</a>.",
    "Create the choices of the scene": "Créer les choix de la scène",
    "chapter:building-a-game-step-by-step.section:create-the-choices-of-the-scene.paragraph": "Nous arrivons maintenant à la partie la plus importante : les choix que vous allez proposer au joueur.<br /><br />En termes de gameplay, pour le joueur, un choix sera simplement un court texte cliquable en bas du plateau de jeu.<br />Cliquer sur un choix peut conduire à une scène suivante, ou mettre fin au programme. <br />Vous pouvez également décider que le joueur doit avoir ramassé certains objets pour pouvoir faire le choix.<br /><br />Ouvrez la popup en cliquant sur le deuxième bouton en partant de la droite dans la barre d'outils.<br /><br />Tapez votre texte dans le champ de saisie. Le texte doit être aussi court que possible et donner une information claire au joueur sur ce qui va se passer avec ce choix. Par exemple : \"Aller dehors\" ou \"Visiter l'étage\", \"Allumer la machine\", etc.<br /><br />Pour notre jeu de démonstration Home Sweet Home, nous avons 2 choix par scène à définir. Si nous revenons à notre plan (voir la section \"La logique du jeu\"), nous voyons que pour la première scène nous avons :<ul><li>Entrez dans le chalet</li><li>Allez vous promener dans la forêt</li></ul>Donc remplissons la saisie de texte avec \"Entrez dans le chalet\".<br /><br />Sous le champ de texte, il y a un menu dans lequel vous pouvez choisir quelle sera la scène affichée après que le joueur ait cliqué sur le choix. Vous pouvez aussi choisir \"Quitter le jeu\" mais à ce stade, ce ne serait pas très amusant de terminer le jeu :). !<br />Pour l'instant, il n'y a pas de scène à parcourir car nous sommes toujours en train de créer la première scène. Nous allons donc laisser ceci vide et revenir plus tard pour configurer les choix et \"lier\" les scènes entre elles.<br />Nous allons donc valider celle-ci comme ça.<br /><br />Répétons l'opération et créons un autre choix avec le texte \"Aller se promener dans la forêt\"<br /><br />Vous devriez voir les choix que vous venez de créer affichés sur le panneau en dessous de l'image de la scène.<br /><br />Vous pouvez modifier un choix en cliquant dessus.",
    "Create new scenes": "Créer de nouvelles scènes",
    "chapter:building-a-game-step-by-step.section:create-new-scenes.paragraph": "Nous avons créé notre première scène. Maintenant il est temps d'en ajouter d'autres !<br /><br />Le processus est lemême pour chaque scène donc nous allons accélérer un peu. Je vais décrire ici la création de toutes les scènes jouablesrestantes (c'est-à-dire toutes les scènes qui ne sont pas des cinématiques, nous aborderons les cinématiques plustard).<br />Reprenons notre plan décrit dans la section Logique du jeu, nous voyons que nous avons 4 scènes de forêt, etl'une d'entre elles contient la clé que le joueur doit trouver.<br /><br />N'oubliez pas de définir le titre des scènesque vous créez. Il sera plus facile pour vous de les retrouver comme destinations dans les choix.<br /><br />Pour créerune nouvelle scène, cliquez sur l'icône \"+\" dans la section \"scènes\" de la barre d'outils de gauche. <ul><li><b><green>Forêt 1:</green></b><ul><li><b>Image:</b> Arbres et mousse..., obtenez l'image originale <a href='{%forest_1_image_link%}' download='Forest_1.png'>ici</a></li><li><b>Choix:</b><ul><li>Continuez à vous promener dans la forêt : Pour l'instant, il suffit de créer le choix avec le texte et de laisser vide la scène de destination jusqu'à ce que nous la créions.</li><li>Retourner au chalet : Pour celui-là, nous avons la scène de destination donc nous pouvons la sélectionner dès maintenant. Définissez le texte, et sélectionnez votre scène \"chalet\" comme scène de destination.</li></ul></li></ul></li><li><b><green>Forêt 2:</green></b><ul><li><b>Image:</b> Plus profondément dans la forêt, deux sentiers qui se croisent. Obtenez l'image originale <a href='{%forest_2_image_link%}' download='Forest_2.png'>ici</a></li><li><b>Choix:</b><ul><li>Prendre le sentier de gauche : Tapez le texte et laissez la destination vide en attendant de créer la scène Forêt 3</li><li>Prendre le sentier de droite: Tapez le texte, et sélectionnez Forêt 1 comme scène de destination. </li></ul></li></ul></li><li><b><green>Forest 3:</green></b><ul><li><b>Image:</b> Dans la forêt... croisement de sentiers... Image originale <a href='{%forest_3_image_link%}' download='Forest_3.png'>ici</a></li><li><b>Message bopite de texte:</b> \"Bon sang... par où était-ce ?\"</li><li><b>Choix:</b><ul><li>Prendre le sentier de gauche: Tapez le texte et laissez la destination vide en attendant d'avoir créé la scène Forêt 4.</li><li>Rester dans les bois pour toujours: Tapez le texte et laissez la destination vide avant d'avoir créé la cinématique \"Cabane forêt pluie\"</li></ul></li></ul></li><li><b><green>Forêt 4:</green></b><ul><li><b>Image:</b>Profond dans la forêt. Image originale <a href='{%forest_4_image_link%}' download='Forest_4.png'>ici</a></li><li><b>Message boîte de texte:</b> \"Suis-je perdu ?\"</li><li><b>Choix:</b><ul><li>Faire demi-tour: Tapez le texte et choisissez Forêt 3 comme scène de destination.</li><li>Continuer à marcher: Tapez le texte et choisissez Forêt 2 comme destination.</li></ul></li></ul></li></ul><br />Ok ! Nous avons donc maintenant grosso modo créé toutes les scènes jouables. Il nous reste à revenir dessuspour mettre en place les destinations laissées vides dans certains choix, et nous devons cacher l'objet \"clé\" dans lascène de la forêt 3. Nous y reviendrons dans la prochaine section.",
    "Create the cinematics": "Créer les cinématiques",
    "chapter:building-a-game-step-by-step.section:cinematics.paragraph": "Toutes les scènes jouables sont créées. Nous allons maintenant aborder les cinématiques.<br />Une scène cinématique est relativement plus simple qu'une scène jouable car elle se limite à une image ou une animation affichée pendant un certain temps, et à l'action automatique à effectuer à la fin de ce temps, cela peut être soit diriger le joueur vers une scène suivante, soit quitter le jeu. <br /><br />Lorsque vous définissez le type d'une scène sur Cinématique,le panneau d'inventaire n'est pas affiché, ni le panneau des choix.<br /><br /><strong>Comment créer une scène de type \"Cinématique\" ? </strong><br /><br />Vous pouvez définir le type d'une scène - parmi quelques autres paramètres - en cliquant sur le bouton \"Paramètres de la scène\" : le premier bouton de la barre d'outils supérieure, avec une icône en forme de rouage.<br />Dans le menu déroulant \"Type de scène\", sélectionnez \"Cinématique\". À ce stade, vous devriez voir apparaître de nouveaux paramètres sous le menu.<br /><ul><li><b>Durée de la cinématique :</b> Il s'agit du nombre de secondes pendant lesquelles la cinématique sera affichée.<br />Si vous réglez cette valeur sur 0, la cinématique s'arrêtera lorsque toutes les images de l'animation auront été jouées. Mais attention, si l'image de la scène n'est pas une animation (c'est-à-dire qu'elle n'a qu'une seule image), la cinématique s'arrêtera immédiatement. De même, pour une durée 0, si votre animation est configurée pour être jouée en boucle, la cinématique tournera éternellement... </li><li><b>Action de fin de cinématique :</b> Il s'agit de l'action qui sera automatiquement effectuée lorsque la cinématique se termine. Vous pouvez choisir de passer à une autre scène, ou de terminer le programme.</li></ul><br /><br />Pour notre jeu de démonstration \"Home Sweet Home\", nous allons créer principalement 2 séquences cinématiques.<br /><ul><li><b><green>Cinématique à l'intérieur du chalet</green></b> : Une petite animation représentant une athmosphère agréable et douillette à l'intérieur du chalet qui s'affichera si le joueur entre dans le chalet.<br />Télécharger l'animation originale <a href='{%cinematic_inside_chalet_image_link%}' download='cinematic_inside_chalet.png'>ici</a> (6 frames)<br /><br /></li><li><b><green>Cinématique cabane dans les bois</green></b>: C'est l'animation qui sera montrée si le joueur choisit l'option \"Rester dans les bois pour toujours\". Nous allons construire cette cinématique d'une façon un peu plus complexe que la première car nous allons en fait créer une chaine de 3 cinématiques. <ul><li><b><green>Cinématique cabane 1</green></b>: Une courte animation montrant une fragile petite cabane sous la pluie dans les bois.<br />L' \"Action de fin de cinématique\" sera réglée sur <i>Passer à la scène suivante &gt; <green>Cinématique cabane 2</green></i><br />Télécharger l'animation originale <a href='{%cinematic_cabin_1_image_link%}' download='cinematic_cabin_1.png'>ici</a> (3 frames)<br /><br /></li><li><b><green>Cinématique cabane 2</green></b>: Une animation montrant la construction d'une meilleure cabane.<br />L'\"Action de fin de cinématique\" sera réglée sur <i>Passer à la scène suivante &gt; <green>Cinématique cabane 3</green></i><br />Télécharger l'animation originale <a href='{%cinematic_cabin_2_image_link%}' download='cinematic_cabin_2.png'>ici</a> (3 frames)<br /><br /></li><li><b><green>Cinématique cabane 3</green></b>: La nouvelle cabane terminée. <br />L'\"action de fin de cinématique\" sera réglée sur <i><green>Fin du programme</green></i><br />Télécharger l'animation originale <a href='{%cinematic_cabin_3_image_link%}' download='cinematic_cabin_3.png'>ici</a> (4 frames) </li></ul></li></ul>",
    "Complete the playable scenes configuration": "Compléter la configuration des scène jouables",
    "chapter:building-a-game-step-by-step.section:complete-configuration.paragraph": "Nous avons presque fini ! Toutes les scènes jouables sont créées, les cinématiques sont créées, donc à présent nous allons tout relier ensemble en complétant les paramètres laissés vides.<br />Sélectionnons une par une les scènes que nous devons édtier, et complétons tout ce qui doit l'être.<ul><br /><li>Éditer une scène &gt; <b><green>Chalet</green></b><br />&gt; <i>choix::</i>Entrer dans le chalet &gt; <b>Destination</b> &gt; <green>Cinématique intérieur chalet</green><br />- <b>Objets requis</b> &gt; <green>clé</green><br />- <b>Message si objet manquant</b> &gt; \"Tu ne peux pas entrer sans ta clé, mais il semble que tu l'aies perdue...\" <br />- <i>choix::</i>Aller marcher dans la forêt &gt; <b>Destination</b> &gt; <green>Forêt 1</green></li><br /><li>Éditer une scène &gt; <b><green>Forêt 1</green></b><br />&gt; <i>choix::</i>Continuer de marcher dans la forêt &gt; <b>Destination</b> &gt; <green>Forêt 2</green></li><br /><li>Éditer une scène &gt; <b><green>Forêt 2</green></b><br />&gt; <i>choix::</i>Prendre le sentier de gauche &gt; <b>Destination</b> &gt; <green>Forêt 3</green></li><br /><li>Éditer une scène &gt; <b><green>Forêt 3</green></b><br />&gt; <i>choix::</i>Prendre le sentier de droite &gt; <b>Destination</b> &gt; <green>Forêt 4</green><br />- <i>choix::</i>Rester dans les bois pour toujours &gt; <b>Destination</b> &gt; <green>Cinématique cabane 1</green></li><br /><li>Éditer une scène &gt; <b><green>Cinématique cabane 1</green></b><br />&gt; Paramètres de la scène (1er bouton de la barre d'outils du haut) &gt; <b>Passer à la scène suivante</b> &gt; <green>Cinématique cabane 2</green></li><br /><li>Éditer une scène &gt; <b><green>Cinématique cabane 2</green></b><br />&gt; Paramètres de la scène &gt; <b>Passer à la scène suivante</b> &gt; <green>Cinématique cabane 3</green></li></ul>",
    "Game starting point": "Point de départ du jeu",
    "chapter:building-a-game-step-by-step.section:game-starting-point.paragraph": "Nous avons maintenant créé toutes les scènes, jouables et cinématiques. Les objets sont en place, et les choix sont entièrement configurés. Nous y sommes presque !<br /><br />La dernière chose que vous devez faire est de vous occuper de la scène qui sera le point de départ du jeu. <br /><br />Pour ce faire, cliquez sur le menu déroulant \"Point de départ\" dans la section Scènes de la barre d'outils latérale, et sélectionnez la scène que vous voulez être la première à être affichée lorsque le joueur démarre le jeu.<br /><br />Pour notre jeu \"Home Sweet Home\", vous devriez sélectionner la scène <b><green>Chalet</green</b>.",
    "Finalization of the interface customization": "Finalisation de la personnalisation de l'interface",
    "chapter:building-a-game-step-by-step.section:finalization-interface-customization.paragraph": "Eh bien, le jeu est fait 🎮 😊 !<br /><br />Maintenant, nous pourrions nous occuper des derniers petits détails concernant l'apparence de l'interface, comme la couleur que vous voulez pour les fonds, quelle largeur pour les bordures, les polices, les tailles de texte, etc.<br />Cela se fera avec les paramètres que vous pouvez trouver en bas de la barre d'outils latérale.<br /><br />Nous avons déjà vu comment personnaliser l'apparence du panneau d'inventaire et les paramètres généraux pour la forme des images et le fond principal.<br />Nous pouvons maintenant jeter un coup d'œil aux paramètres des boîtes de texte, et aux paramètres du panneau de choix.<br /><ul><li><b>Paramètres des boîtes de texte</b> : Ces paramètres s'appliqueront à toutes les zones de texte que vous avez définies dans le jeu. Vous pouvez choisir une police, un mode d'alignement du texte, une couleur de texte, etc. Vous pouvez également choisir une couleur de fond, vous pouvez arrondir les coins et rendre la bordure plus épaisse.<br /><br /></li><li><b>Paramètres du panneau de choix</b> : Ces paramètres s'appliqueront également pour toutes les scènes du jeu. Vous pouvez personnaliser l'apparence du texte, vous pouvez configurer l'espace que vous voulez mettre autour des choix (padding du panneau), vous pouvez ajuster le padding interne des choix, et choisir un effet de couleur lorsque vous passez la souris sur un choix (éclaircir, assombrir ou aucun).<br />Vous pouvez également arrondir les coins du fond des choix (visible lorsque vous passez la souris sur les choix)</li></ul>.",
    "Export the project": "Exporter le projet",
    "chapter:building-a-game-step-by-step.section:export-project.paragraph": "A tout moment, vous pouvez exporter votre travail dans un fichier et le sauvegarder n'importe où dans votre ordinateur.<br /><br />Nous aurions pu aborder ce sujet bien plus tôt car il est en fait très important, car c'est le seul moyen dont vous disposez pour sauvegarder votre travail en cours ! <br />Vous pouvez exporter votre projet en cliquant sur l'icône d'exportation, en haut à gauche du tableau de bord.<br />Vous pouvez également réaliser la même chose en appuyant sur Controle+S.<br /><br />Cela vous invitera à accepter un téléchargement pour un fichier avec une extension .mtl (.mtl pour mentalo) et nommé à partir du titre que vous avez donné à votre jeu.",
    "Import a project": "Importer un projet",
    "chapter:building-a-game-step-by-step.section:import-project.paragraph": "Nous avons vu précédemment comment enregistrer votre travail dans un fichier. Cette section porte sur la façon de l'importer!<br /><br />Vous pouvez importer un fichier sauvegardé depuis la page d'accueil de l'appli Mentalo avec le bouton \"Charger un projet\", ou depuis l'intérieur de l'appli, avec le bouton d'importation en haut à gauche du tableau de bord.<br /><br />Une invite système s'ouvrira et vous pourrez sélectionner le fichier que vous souhaitez charger. Vous ne pourrez sélectionner que des fichiers .mtl.<br /><br />Si vous n'avez pas déplacé le fichier que vous avez précédemment exporté, il sera probablement situé dans votre répertoire Téléchargements.",
    "Test playing the game": "Tester le jeu",
    "chapter:building-a-game-step-by-step.section:test-playing-game.paragraph": "Tout est réglé, essayons votre nouveau jeu !<br /><br />À tout moment, vous pouvez essayer de jouer au jeu que vous construisez simplement en appuyant sur le bouton Play dans la barre d'outils latérale.<br /><br />Si vous essayez de jouer à votre jeu mais que certains paramètres manquent, comme si une destination pour un choix n'est pas définie, ou si vous n'avez pas défini la fin du programme quelque part, ce n'est pas grave, vous pourriez voir une petite popup d'erreur et vous pouvez quitter le jeu en appuyant sur Echap. Cela vous ramènera là où vous étiez, dans l'éditeur.",
    "Application functionalities reference": "Référence des fonctionnalités de l'application",
    "chapter:app-functionalities-reference.paragraph": "Ce chapitre fait la description de toutes les fonctionnalités de l'application Mentalo.<br />Vous pouvez également suivre le guide pas à pas (Chapitre : Construire un jeu pas à pas) pour une prise en main plus intuitive de Mentalo.",
    "Import / export a project": "Importer / exporter un projet",
    "chapter:app-functionalities-reference.section:import-export-project.paragraph": "<strong>Importer un projet</strong><br /><br />Vous pouvez importer un projet de jeu soit dans l'éditeur de jeu Mentalo soit depuis la page d'accueil de l'application Mentalo avec le bouton \"Charger un projet\", soit depuis l'intérieur de l'application avec le bouton d'importation en haut à gauche du tableau de bord.<br />Un fichier de projet de jeu Mentalo a une extension .mtl.<br /><br /><br /><strong>Exporter un projet</strong><br /><br />À tout moment, vous pouvez exporter votre projet de jeu. C'est actuellement votre seul moyen de sauvegarder votre travail en cours, vous devriez donc le faire assez souvent.<br />Pour exporter un projet, appuyez simplement sur le bouton avec une icône d'exportation, en haut à gauche du tableau de bord de l'éditeur.<br /><br />Vous serez invité à accepter le téléchargement d'un fichier .mtl. Enregistrez le fichier où vous voulez sur votre ordinateur.<br /><br />Notez que vous pouvez réaliser la même chose en appuyant sur <b>Contrôle + S</b>.",
    "Images": "Images",
    "chapter:app-functionalities-reference.section:images.paragraph": "Un jeu Mentalo est essentiellement un ensemble de scènes, et chaque scène a une image.<br />Vous pouvez définir cette image en cliquant sur le deuxième bouton de la barre d'outils supérieure.<br /><br />L'image d'une scène peut être une image simple ou une animation.<br />Une animation est une image avec plusieurs cadres. Toutes les images doivent être rassemblées les unes à côté des autres dans le même fichier image. Il ne doit y avoir absolument aucun espace vide entre chaque image.<br />Si l'image que vous choisissez ne correspond pas exactement au ratio que vous choisissez dans les paramètres généraux (voir le bouton avec une icône en forme de cube dans la barre latérale, le ratio peut être réglé sur 4:3, 16:9, 1:1, etc.), elle sera centrée au-dessus d'un fond noir.<br /><br />Vous avez deux façons de définir l'image d'une scène :<br /><ul><li>Télécharger un fichier image depuis votre ordinateur. (.png, .jpg ou .bmp...)</li><li>Créer une image avec l'outil de dessin intégré.<br />L'outil de dessin est très limité donc vous pourriez préférer utiliser votre application de dessin préférée pour créer une image, mais l'utilisation de celle-ci peut être offrir une certaine commodité pour créer une animation et éviter de manipuler le fichier à travers plusieurs applications. </li></ul><br />Lorsque votre image est créée ou téléchargée, vous pouvez spécifier le nombre d'images s'il s'agit d'une animation (cela sera fait automatiquement si l'image est créée avec l'outil de dessin intégré mais pas si vous téléchargez votre propre fichier), puis vous pouvez ajuster la vitesse de l'animation, et spécifier si l'animation doit tourner en boucle ou non.",
    "Soundtracks": "Pistes sonores",
    "chapter:app-functionalities-reference.section:soundtracks.paragraph": "Pour chaque scène, vous avez la possibilité d'ajouter une bande sonore.<br /><br />Cliquez sur le bouton avec des notes de musique dans la barre d'outils supérieure, cela ouvrira la popup avec les options de la bande sonore.<br />Vous pouvez télécharger une nouvelle piste ou supprimer la piste actuelle, et vous pouvez spécifier si la piste que vous avez choisie doit être jouée en boucle ou non.<br><br>À noter que si deux scènes se suivent et qu'elles ont la même piste, la piste ne reprendra pas au début au moment de passer d'une scène à l'autre.",
    "Objects": "Objets",
    "chapter:app-functionalities-reference.section:objects.paragraph": "Une scène peut contenir des objets. <br /><br />Un objet est une petite image, il a un nom, et une position sur l'image de la scène et il peut être pris par le joueur avec un double-clic.<br /><br />Lorsque le joueur double-clique sur un objet, il est stocké dans l'un des emplacements disponibles du panneau d'inventaire. <br />Si l'inventaire est déjà plein, l'objet restera en place dans la scène.<br /><br />Un objet peut être relâché de l'inventaire en cliquant sur l'emplacement où il est maintenu, mais il ne peut être déposé que dans la même scène où il a été ramassé.<br /><br />Lorsque votre objet est créé, il apparaît par défaut dans le coin supérieur gauche de l'image de la scène. Vous pouvez changer sa position en le faisant glisser avec la souris.<br />Vous pouvez modifier l'objet en double-cliquant dessus. La popup des paramètres apparaîtra et vous pourrez modifier l'image et le nom de l'objet. Vous pouvez également activer/désactiver l'aperçu de l'objet dans l'inventaire, et vous pouvez bien sûr supprimer l'objet.",
    "Text boxes": "Boîtes de texte",
    "chapter:app-functionalities-reference.section:text-boxes.paragraph": "Vous pouvez ajouter une boîte de texte à une scène. Les boîtes de texte sont destinées à afficher un message au joueur lorsqu'il arrive dans la scène. Vous pouvez l'utiliser pour donner une information, ou comme outil narratif.<br />La boîte de texte peut être fermée par le joueur avec la petite croix.<br /><br />Pour ajouter une boîte de texte à une scène ou modifier le texte actuel, cliquez sur le bouton avec une icône de dialogue dans la barre d'outils supérieure.<br />Lorsque vous validez votre texte, un aperçu de la boîte de texte apparaîtra sur la vue du projet, au-dessus de l'image de la scène. Vous pouvez double-cliquer dessus pour éditer le texte. Ou vous pouvez la fermer avec l'icône de la croix.",
    "Scenes": "Scènes",
    "chapter:app-functionalities-reference.section:scenes.paragraph": "<strong>Créer une nouvelle scène</strong><br /><br />Créez une nouvelle scène en cliquant sur le bouton avec une icône \"+\" dans la section Scènes de la barre d'outils de gauche.<br /><br /><br /><strong>Editer une scène</strong><br /><br />Pour éditer une des scènes de votre projet de jeu, utilisez le menu déroulant \"Editer une scène\" dans la section Scènes de la barre d'outils de gauche. <br /><br /><strong>Supprimer une scène</strong><br /><br />Vous pouvez supprimer la scène que vous êtes en train d'éditer en cliquant sur le bouton avec une icône de suppression dans la barre d'outils supérieure.<br /><br /><br /><strong>Paramètres de scène</strong><br /><br />Le bouton Paramètres de scène (le premier de la barre d'outils supérieure) vous permet de définir le type de la scène.<br />Vous pouvez choisir entre Jouable et Cinématique.<br />Une scène jouable est le mode par défaut. Elle est appelée jouable parce que le joueur peut \"faire\" des actions comme cliquer sur des choix et prendre des objets.<br />Une scène cinématique est juste une image ou une animation à regarder pour le joueur pendant un certain temps. <br />Lorsque vous sélectionnez le type \"Cinématique\" dans la popup des paramètres de la scène, certains paramètres supplémentaires apparaîtront.<br /><ul><br /><li><b><green>Durée de la cinématique</green></b> : combien de temps (en secondes) la cinématique doit se dérouler.</li><br /><li><b><green>Fin de l'action cinématique</green></b> : Quelle action sera effectuée à la fin de la cinématique. Vous pouvez choisir de diriger le joueur vers une scène suivante, ou de mettre fin au programme.</li><br /></ul>.",
    "General customization": "Customisation générale",
    "chapter:app-functionalities-reference.section:general-customization.paragraph": "Dans la section \"paramètres\" de la barre d'outils latérale, le premier bouton vous permet de régler l'apparence générale de votre plateau de jeu.<br /><ul><li><b><green>Couleur d'arrière-plan</green></b> : La couleur de l'espace vide autour de la vue du jeu.</li><li><b><green>Proportions de l'image</green></b> : Les proportions du rectangle qui contient l'image de chaque scène. 1:1 est un carré, 16:9 est comme un écran de TV panoramique, 4:3 est comme un vieil écran de TV...</li></ul>",
    "Choices panel customization": "Customisation du panneau de choix",
    "chapter:app-functionalities-reference.section:choices-panel-customization.paragraph": "Les choix sont les zones de texte cliquables en dessous de l'image de la scène.<br />Cliquez sur le 3ème bouton de la section \"Paramètres\" de la barre latérale. Vous devriez voir apparaître un ensemble de réglages.<br /> Les modifications que vous faîtes ici s'appliqueront pour l'ensemble du jeu.<br /><ul><li><b>Texte</b> : Le premier bloc de réglages \"Texte\" vous permet de choisir une police de caractères, ajuster le texte, la taille, l'alignement, etc.</li><li><b>Panneau</b> : Le second bloc gère le panneau qui contient les choix. Vous pouvez régler la couleur d'arrière plan et la marge intérieure. La marge intérieure est la quantité d'espace autour des choix.</li><li><b>Choix</b> : Le 3ème bloc gère les zones cliquables que nous appelons les choix.<ul><li><b>Marge intérieure</b> : La quantité d'espace autour du texteà l'intérieur d'une zone cliquable.</li><li><b>Arrière-plan du choix survolé</b> : Quand vous passez votre souris sur un choix, vous pouvez faire changer son arrière-plan d'une certaine façon :<ul><li><green>Éclaircir</green>: L'arrière-plan apparaîtra dans une couleur plus claire que le fond du panneau. </li><li><green>Assombrir</green>: L'arrière-plan sera plus sombre que le fond du panneau. </li><li><green>Sans effet</green>: L'arrière-plan ne change pas. </li></ul></li><li><b>Coins arrondis du choix survolé</b> : Vous permet d'ajuster l'arrondi des coins de l'arrière-plan qui apparaît lorsque vous passer votre souris sur un choix.</li><li><b>Largeur de bordure du choix survolé</b> : Règle la largeur de la bordure qui apparaît autour d'un choix lorsque vous passer la souris dessus.</li></ul></li></ul>",
    "Inventory panel customization": "Customisation de l'inventaire",
    "chapter:app-functionalities-reference.section:inventory-panel-customization.paragraph": "Le panneau d'inventaire est la zone à droite de l'image de la scène. Elle contient une grille d'emplacements dans lesquels le joueur peut stocker des objets.<br />Cliquez sur le dernier bouton de la section \"Paramètres\" de la barre latérale.<br />Les réglages affichés permettent de personnaliser le panneau lui-même, et les emplacements qui sont dedans.<br />Les modifications faites ici s'appliqueront sur tout le jeu.<br /><ul><li><b>Panneau</b><ul><li><green>Colonnes</green> : Règle la taille horizontale de la grille. </li><li><green>Lignes</green> : Taille verticale de la grille. </li><li><green>Couleur d'arrière-plan</green> : La couleur de fond du panneau. </li></ul></li><li><b>Emplacements</b><ul><li><green>Espacement</green> : Combien d'espace entre chaque case. </li><li><green>Coins arrondis</green> : Comment les coins de chaque emplacement sera arrondi. Notez qu'il faut avoir une largeur de bordure supérieure à zéro pour voir l'arrondi des coins. Si vous poussez la valeur au maximum, les cases devraient devenir des cercles. </li><li><green>Largeur de bordure</green> : L'épaisseur de la bordure des cases. </li></ul></li></ul>",
    "Text boxes customization": "Customisation des boites de texte",
    "chapter:app-functionalities-reference.section:text-boxes-customization.paragraph": "Pour chaque scène de votre jeu, vous avez la possibilité d'afficher un message au joueur dans une boîte de texte. La boîte de texte s'affiche par dessus l'image lorsque le joueur arrive dans la scène.<br />Vous pouvez personnaliser l'aspect des boîtes de texte de votre jeu en cliquant sur le deuxième bouton de la section \"Paramètres\" dans la barre d'outils latérale. <br /><br />Le premier bloc de paramètres <b>Texte</b> vous permet de personnaliser le texte lui-même, de choisir une police, de rendre le texte plus gras ou plus fin, de modifier l'alignement, etc.<br /><br />Le deuxième bloc <b>Boîte</b> concerne la boîte contenant le texte. Vous pouvez choisir une couleur de fond, rendre les coins plus rond et ajuster la largeur de la bordure.<br /><br /><br />Notez que ces paramètres s'appliqueront à toutes les boîtes de texte de votre jeu.",
    "The drawing tool": "L'outil de dessin",
    "chapter:drawing-tool.paragraph": "Lorsque vous créez un jeu avec Mentalo, il y a deux situations dans lesquelles vous devez fournir des images : Les images de scènes, et les images d'objets.<br />Bien sûr, vous pouvez créer vos images avec n'importe quel éditeur d'images que vous aimez, GIMP ou Piskel par exemple, si vous aimez être précis avec votre travail pictural, cela pourrait être la meilleure solution.<br />Mais vous pouvez également utiliser l'outil de dessin intégré fourni par Mentalo. <br />Il s'ouvrira de lui-même lorsque vous cliquerez sur l'option \"Créer une image\", ou \"Modifier l'image\".<br /><br />L'utilisation de l'outil de dessin de Mentalo vous limitera à bien des égards car c'est un outil assez minimaliste, mais il peut aussi offrir quelques avantages :<br /><ul><li>Il vous permet de créer facilement des animations simples. </li><li>Vous pouvez importer une image existante et la modifier, ou la transformer en une animation.</li><li>Il peut vous épargner un certain temps de manipulation de fichiers d'images sur plusieurs applications.</li></ul><br />Lisez ce chapitre pour apprendre à utiliser les différentes fonctionnalités de l'outil de dessin Mentalo.",
    "The drawing tools": "Les outils de dessin",
    "chapter:drawing-tool.section:drawing-tools.paragraph": "Les différents outils de dessin disponibles peuvent être sélectionnés parmi la rangée de 4 boutons de la barre latérale.<br /><br /><strong>Choisir une couleur</strong><br />Pour choisir la couleur avec laquelle vous voulez dessiner, cliquez à l'intérieur du rectangle noir en haut de la barre latérale. Un sélecteur de couleur standard s'affichera, choisissez une couleur, fermez le sélecteur, la nouvelle couleur sera sélectionnée pour le crayon et le pot de peinture.<br /><br /><strong>Taille du crayon</strong><br />Réglez la taille du crayon à l'aide du curseur. Ce réglage s'applique également à la gomme.<br /><br /><strong>Crayon</strong><br />C'est l'outil de dessin sélectionné par défaut. Pas de surprise ici, c'est un crayon. Cliquez sur l'image, maintenez le bouton de la souris et faites glisser le pointeur pour dessiner.<br /><br /><strong>Gomme</strong><br />La gomme fonctionne de la même manière que le stylo, sauf que la couleur de remplissage sera la couleur de l'arrière-plan de base (blanc ou transparent selon que vous êtes en mode scène ou en mode objet).<br /><br /><strong>Pot de peinture</strong><br />Cet outil vous permet de remplir une forme fermée avec une couleur. Dessinez une forme fermée avec le crayon, puis sélectionnez le pot de peinture et cliquez à l'intérieur de la forme que vous voulez remplir.<br /><br /><strong>Pipette</strong><br />Le sélecteur de couleurs vous permettra de récupérer une couleur que vous avez déjà utilisée dans votre image. Sélectionnez la pipette, cliquez sur un pixel. La couleur de ce pixel sera désormais sélectionnée et utilisée par le crayon et le pot de peinture.",
    "Mode scene or object": "Mode scène ou objet",
    "chapter:drawing-tool.section:mode-scene-or-object.paragraph": "Selon que vous avez ouvert l'outil de dessin à partir d'un popup d'image de scène ou d'un popup d'objet, vous serez en mode scène ou en mode objet.<br /><br /><strong>Mode scène</strong><br />En mode scène, la forme de l'image correspondra exactement au ratio d'image choisi dans les paramètres généraux de votre jeu.<br />La couleur de fond par défaut sera le blanc, et la gomme utilisera du blanc. <br />La largeur maximale de l'image sera de 300 pixels.<br />Le mode animation sera disponible.<br /><br /><strong>Mode objet</strong><br />En mode objet, l'image sera contenue dans un canevas carré.<br />La couleur de fond et la couleur de la gomme par défaut seront transparentes.<br />La largeur maximale de l'image sera de 80 pixels.<br />Le mode animation ne sera pas disponible.",
    "Image resolution": "Résolution de l'image",
    "chapter:drawing-tool.section:image-resolution.paragraph": "Le paramètre \"Résolution de l'image\" situé dans la barre d'outils vous permet de modifier la densité de pixels de votre image.<br /><br />Pour une image en mode scène, la valeur maximale est de 300 pixels de largeur (la hauteur dépend de la proportion du rectangle contenant l'image de la scène).<br />Pour une image en mode objet, le maximum est de 80 pixels.<br /><br />Changer la résolution de l'image pour une scène la rendra plus ou moins pixellisée ( plus de pixels = moins pixellisée ). <br /><br />En mode objet c'est la même chose mais cela aura aussi une conséquence concernant la taille de l'objet sur l'image de la scène : <br />Si votre image d'objet a plus de pixels, elle devrait apparaître plus grande sur l'image de la scène, et plus petite avec moins de pixels.<br /><br />Cela signifie donc que vous pouvez gérer le rapport de taille entre une image de scène et les images d'objets sur celle-ci en utilisant ce paramètre.",
    "Clear the image": "Effacer l'image",
    "chapter:drawing-tool.section:clear-image.paragraph": "Le bouton avec une icône de feuille blanche dans la barre d'outils effacera entièrement l'image.<br />En mode scène, l'image sera remplie de blanc. En mode objet, elle sera remplie de transparence.<br /><br />En mode animation, vous pouvez également utiliser ce bouton pour effacer une des frames (sans la supprimer).",
    "Keyboard shortcuts": "Raccourcis clavier",
    "chapter:drawing-tool.section:keyboard-shortcuts.paragraph": "Quelques combinaisons de touches seront utiles dans l'applet de dessin Mentalo :<br /><br /><ul><li><b><green>Annuler</green></b> : <b>Contrôle + Z</b><br /><em>Appuyer simultanément sur la touche \"Contrôle\" et la touche \"z\" pour annuler la dernière action que vous avez effectuée (une action de stylo, une action de gomme, un godet de peinture, un changement de résolution d'image, etc)</em><br /></li><li><b><green>Pipette</green></b> : <b>Majuscule</b><br /><em>Si vous avez le crayon ou le pot de peinture sélectionné, appuyer sur la touche Majuscule sélectionnera la pipette. En relâchant la touche, vous retrouverez votre outil normal. Ainsi, par exemple, si vous avez le crayon sélectionné, votre couleur sélectionnée est le noir, et que vous voulez obtenir une couleur verte que vous avez déjà utilisée auparavant : appuyez sur la touche Maj, et pendant que vous maintenez la touche Maj, cliquez dans un pixel avec le vert que vous voulez, puis relâchez la touche. Vous pouvez maintenant dessiner avec votre crayon vert.</em></li> <li><b><green>Copier</green></b> : <b>Contrôle + C</b><br /><em>Appuyez sur la touche \"Contrôle\" et la touche \"c\" ensemble pour faire une copie de la frame éditée dans le presse-papier.</em></li><li><b><green>Coller</green></b> : <b>Contrôle + V</b><br /><em>Appuyez sur la touche \"Contrôle\" et la touche \"v\" ensemble pour remplacer la frame éditée par le contenu du presse-papier.</em></li></ul>",
    "Animation mode": "Mode animation",
    "chapter:drawing-tool.section:animation-mode.paragraph": "Lorsque vous créez une image de scène, le mode animation est disponible.<br /><br />Activez-le avec la case à cocher dans la barre d'outils.<br /><br />Si le mode animation est actif, un nouveau panneau apparaîtra au bas du tableau de bord.<br />Il vous permettra de créer de nouvelles frames pour votre image. <br />Les cadres seront joués successivement au rythme que vous souhaitez.<br /><br /><hr /><br />Si vous n'êtes pas familier avec la réalisation d'animations, vous pouvez être un peu confus par certains concepts ou certains mots. <br />Pour être sûr de ne rien manquer et que nous parlerons le même langage, voici une petite introduction.<br />Vous pouvez également lire <a href='https://en.wikipedia.org/wiki/Animation' target='_blank'>la page Wikipedia sur l'animation</a>. <br />Dans tous les cas, ne vous inquiétez pas, tout est très simple.<br /><br /><strong>Une animation, c'est  fait avec des frames</strong><br />Une animation est une séquence d'images jouées relativement rapidement les unes après les autres pour donner l'illusion du mouvement.<br />Chacune de ces images est appelée une frame. <br /><br /><hr /><br />Dans l'applet de dessin Mentalo, lorsque vous activez le mode animation, les outils de manipulation des frames apparaissent en bas du tableau de bord.<br /><ul><li>Le premier bouton, est un bouton de lecture, pour vizualiser le rendu de votre animation.</li><li>Les 3 boutons suivants permettent d'ajouter ou de supprimer des images. </li><li>Les 3 boutons suivants sont utiles si vous voulez voir les cadres voisins par transparence (cela s'appelle \"pelures d'oignons\").</li><li>Et enfin le curseur à droite de la rangée règle la vitesse de l'animation.</li><li>Les frames de votre animation sont représentés sous la rangée de boutons par de petits rectangles avec des numéros. Vous pouvez cliquer sur un rectangle pour sélectionner la frame que vous voulez modifier.</li></ul>.",
    "Handle animation frames": "Gérer les frames de l'animation",
    "chapter:drawing-tool.section:handle-animation-frames.paragraph": "<strong>Ajouter une nouvelle frame</strong><br />Lorsque vous ajoutez une frame, le nouvelle frame sera inséré à la position voisine de la frame actuellement sélectionnée. Donc par exemple, si votre animation a 6 frames, et que vous avez la frame 4 sélectionnée, si vous cliquez sur Ajouter une nouvelle frame, la frame sera insérée à la position 5 (donc les frames actuelles 5 et 6 seront décalées à 6 et 7). <br />Il existe 2 façons d'ajouter une nouvelle frame à votre animation :<br /><ul><li><b><green>Ajouter une nouvelle frame vide</green></b> : Cliquez sur le deuxième bouton de la barre d'outils d'animation (avec une feuille blanche et un +), une frame vide sera insérée à droite de la frame actuellement sélectionnée. Vous pouvez maintenant dessiner sur votre nouveau cadre. Lorsque vous avez terminé, ajoutez-en une nouvelle ! </li><li><b><green>Copier la frame actuelle vers une nouvelle frame</green></b> : Cliquez sur le 3e bouton de la barre d'outils d'animation (avec 2 feuilles et un +), un cadre identique à celui actuellement sélectionné sera inséré. Ceci est utile lorsque votre animation ne bouge pas beaucoup. Par exemple, si vous avez dessiné un décor entier et qu'il y a juste une petite chose qui bouge dessus, vous ne voulez pas redessiner votre décor à chaque fois. Donc quand vous avez inséré une copie de votre frame précédente, vous pouvez ensuite modifier les petites choses que vous voulez dans le nouveau, et ainsi de suite.</li></ul><br /><br /><strong>Supprimer une frame</strong><br />Si vous voulez supprimer une frame de votre animation, sélectionnez la frame que vous voulez supprimer, et cliquez sur le 4e bouton de la barre d'outils d'animation (avec une icône de suppression). S'il y avait des frames à droite de celle que vous avez supprimée, elles seront décalées d'un cran vers la gauche (il n'y aura donc pas de \"trou\" à la position de la frame supprimée).",
    "Onion skins": "Pelures d'oignons",
    "chapter:drawing-tool.section:onion-skins.paragraph": "Non, il ne s'agit pas de cuisine :) ! Ce que nous appelons les pelures d'oignon en animation, c'est lorsque vous projetez une vue semi-transparente (comme le serait une pelure d'oignon réelle) d'une frame voisine sur votre frame actuellement sélectionnée.<br />Cela vous permet de voir ce qui a été dessiné dans la précédente (ou la suivante, ou les deux) pendant que vous dessinez une nouvelle frame. <br /><br />Prenons un exemple (voir les images à côté) :<br />Vous voulez que l'image de votre scène soit une petite maison à côté d'une autoroute avec un mince filet de fumée sortant de la cheminée.<br />Votre décor (la maison et l'autoroute) ne bougera pas, il n'est donc pas nécessaire de le toucher. Mais vous voulez que la fumée soit un peu animée.<br />Donc, commençons dans la première frame avec le décor : la maison et l'autoroute.<br /><br />Puis, faisons 3 copies de cette frame, nous avons donc 4 frames au total (en supposant que 4 frames suffisent pour notre animation). Pour l'instant, les 4 frames sont toutes identiques.<br /><br />Maintenant, nous allons sélectionner la première frame, et dessiner la volute fumée dessus.<br /><br />Quand cela est fait, nous allons sélectionner la seconde frame et dessiner une volute de fumée similaire mais légèrement différente de la première.<br />C'est là que les pelures d'oignon entrent en jeu. À ce stade, ce serait pas mal de garder une vue de la fumée de la première frame pendant que nous dessinons la suivante. <br />Les boutons qui gèrent les pelures d'oignon dans la barre d'outils d'animation est le dernier groupe de boutons avec des feuilles et des icônes d'yeux sur eux. Nous allons cliquer sur le premier pour montrer la frame d'avant celle que nous dessinons.<br />Vous devriez voir apparaître la fumée de la première frame très légèrement. Maintenant, vous pouvez vous basez sur celle-ci pour dessiner une autre fumée.<br /><br />Répétez l'opération jusqu'à la dernière frame, et essayez d'appuyer sur le bouton play (le premier) pour voir vos frames bouger !<br /><br />Eventuellement, dans d'autres situations, vous pouvez avoir besoin de voir la frame suivante plutôt que la précédente. Vous appuierez sur le deuxième bouton pour cela.<br />Le dernier bouton vous permet d'afficher à la fois les frames suivantes et précédentes.",
    "Play the animation": "Jouer l'animation",
    "chapter:drawing-tool.section:play-animation.paragraph": "En cliquant sur le premier bouton de la barre d'outils d'animation - avec un triangle vert - vous jouerez votre séquence d'images.<br /><br />Lorsque votre animation est en cours de lecture, les boutons pour ajouter/supprimer des frames et les boutons de pelures d'oignons sont cachés.<br /><br />Vous pouvez encore ajuster la vitesse de l'animation avec le curseur.<br /><br />Arrêtez l'animation en cliquant sur le bouton carré rouge.",
    "Files": "Fichiers",
    "chapter:drawing-tool.section:files.paragraph": "L'applet de dessin ne peut être ouvert que par l'app Mentalo, lorsque vous définissez une image de scène, ou une image d'objet.<br />Parce que cela conduirait à de nombreuses erreurs logiques et bugs, il est impossible d'importer un fichier image directement dans l'applet de dessin.<br />Si vous voulez utiliser l'outil de dessin en partant d'une image existante, vous devez importer votre image dans Mentalo (à travers la popup de réglage de l'image de scène, ou la popup de réglage de l'objet), et utiliser le bouton \"edit image\". <br /><br />Cependant, si vous commencez à travailler sur une image avec l'outil de dessin et que vous voulez sauvegarder votre travail en cours, et l'importer plus tard, vous pouvez exporter un fichier .mtli (pour Mentalo Image) spécifique.<br />Un fichier . mtli contient les données de l'image elle-même, mais aussi toutes les données utiles pour savoir si votre image est pour une scène ou un objet, le nombre de frames qu'elle a, la vitesse d'animation, etc.<br /><br /><strong>Exporter</strong><br />Les boutons d'importation/exportation sont situés en haut à droite de votre écran.<br />Cliquez sur le premier bouton, avec une flèche sortante. Vous serez invité à accepter le téléchargement d'un fichier <b><green>export-mentalo-animation.mtli</green></b>. Téléchargez le fichier et stockez-le où vous le souhaitez. Vous pouvez également le renommer comme vous le souhaitez. La seule chose importante est l'extension <b><green>.mtli</green></b>, vous ne pourriez pas réimporter le fichier sans elle.<br /><br /><strong>Importer</strong><br />Cliquez sur le bouton avec une flèche entrante en haut à droite de l'écran, et trouvez le <green>. mtli</green> que vous voulez récupérer.<br /><br />Notez que si vous avez ouvert l'outil de dessin en mode scène, vous ne pourrez pas importer une image en mode objet, et vice versa.",
    "Exit the drawing tool": "Quitter l'outil de dessin",
    "chapter:drawing-tool.section:exit-drawing-tool.paragraph": "Lorsque vous avez terminé de dessiner votre image ou votre animation, vous avez deux options pour quitter l'outil de dessin :<br /><ul><li><b><green>Revenir avec cette image</green></b> : Vous êtes satisfait de l'image que vous avez créée et vous voulez revenir à l'éditeur de jeu avec elle.<br />Cliquez sur le bouton en haut à gauche de l'écran, avec une flèche et une coche. Vous serez redirigé vers l'application et votre image sera utilisée pour la scène ou l'objet que vous vouliez mettre en place.<br /><br /></li><li><b><green>Abandonner et revenir</green></b> Vous serez redirigé vers l'application, votre dessin sera perdu et l'opération de mise en place de l'image dans laquelle vous étiez sera annulée.</li></ul>.",
    "Play, publish, update and delete games": "Jouer, publier, mettre à jour et supprimer des jeux",
    "chapter:crud-games.paragraph": "<p>Pour explorer et jouer aux créations publiées par d'autres utilisateurs, pour publier votre jeu ou le mettre à jour <br> Rendez-vous sur la page <strong><a href='/games/' target='_blank'>Jeux</a></strong> !<hr></p><h2>Explorer</h2><p>Triez les jeux par date, titre ou auteur et cherchez des jeux par titre avec la barre de recherche. <br />Les boutons sur l'aperçu d'un jeu permettent d'y jouer, de le télécharger ou de l'ouvrir dans l'éditeur de projet. </p><h2>Publier, mettre à jour ou supprimer un jeu</h2> <p>Cliquez sur le bouton <b> <green>Publier</green> </b>en haut à droite, sélectionner l'onglet qui correspond à ce que vous souhaitez faire et suivez les étapes !</p><hr><p><strong><red>/!\\ Attention</red></strong><br />La taille maximum du fichier de jeu que vous pourrez publier est de 32Mo.<br /><br /><strong>Pourquoi cette limite ?</strong><br />Distribuer de gros fichiers en ligne consomme énormément de resources. Le fait de mettre une limite vient de la volonté de les économiser.<br />Avec 32Mo on peut faire déjà beaucoup de choses mais si votre fichier est trop gros vous pouvez essayer les choses suivantes pour optimiser sa taille:<br /><ul><li>Raccourcir les pistes sonores (avec Audacity par exemple)</li><li>Utiliser un format compressé pour les pistes (ex:mp3) et réduire la qualité du son.</li><li>Réduire la taille des images jusqu'à un maximum de 300 pixels de large.</li><li>Créer vos images en utilisant une palette de couleurs indexées (voir sur <a href='https://docs.gimp.org/fr/gimp-image-convert-indexed.html' target='_blank'>GIMP</a>)</li></ul></p>",
    "WARNING: This application is not designed for mobile devices. Display and functionalities may be broken.": "ATTENTION: Cette application n'est pas conçue pour les appareils mobiles. L'affichage et les fonctionnalités pourraient être affectées."
}